EESchema Schematic File Version 4
EELAYER 30 0
EELAYER END
$Descr USLedger 17000 11000
encoding utf-8
Sheet 1 3
Title "Artix 7 Ethernet Acquistion Board"
Date "2020-02-05"
Rev "1"
Comp "Harmon Instruments"
Comment1 ""
Comment2 ""
Comment3 ""
Comment4 ""
$EndDescr
Text Label 10600 8400 2    50   ~ 0
IO_B2
Text Label 10600 7200 2    50   ~ 0
IO_B9
Wire Wire Line
	10600 8400 10300 8400
Wire Wire Line
	10600 7200 10300 7200
$Sheet
S 4450 9650 1050 600 
U 5C2CDB08
F0 "power" 50
F1 "power.sch" 50
F3 "3V6A" O R 5500 9850 50 
$EndSheet
$Comp
L combined:ground #PWR?
U 1 1 5E8AFAA8
P 2000 1450
AR Path="/5BE20C19/5E8AFAA8" Ref="#PWR?"  Part="1" 
AR Path="/5E8AFAA8" Ref="#PWR010"  Part="1" 
F 0 "#PWR010" H 2000 1450 50  0001 C CNN
F 1 "ground" H 2000 1380 50  0001 C CNN
F 2 "" H 2000 1450 50  0001 C CNN
F 3 "" H 2000 1450 50  0000 C CNN
	1    2000 1450
	0    1    1    0   
$EndComp
$Comp
L combined:ground #PWR?
U 1 1 5E8AFAAE
P 2000 1550
AR Path="/5BE20C19/5E8AFAAE" Ref="#PWR?"  Part="1" 
AR Path="/5E8AFAAE" Ref="#PWR011"  Part="1" 
F 0 "#PWR011" H 2000 1550 50  0001 C CNN
F 1 "ground" H 2000 1480 50  0001 C CNN
F 2 "" H 2000 1550 50  0001 C CNN
F 3 "" H 2000 1550 50  0000 C CNN
	1    2000 1550
	0    1    1    0   
$EndComp
$Comp
L combined:ground #PWR?
U 1 1 5E8AFAB4
P 2000 1250
AR Path="/5BE20C19/5E8AFAB4" Ref="#PWR?"  Part="1" 
AR Path="/5E8AFAB4" Ref="#PWR08"  Part="1" 
F 0 "#PWR08" H 2000 1250 50  0001 C CNN
F 1 "ground" H 2000 1180 50  0001 C CNN
F 2 "" H 2000 1250 50  0001 C CNN
F 3 "" H 2000 1250 50  0000 C CNN
	1    2000 1250
	0    1    1    0   
$EndComp
$Comp
L combined:ground #PWR?
U 1 1 5E8AFABA
P 2000 1350
AR Path="/5BE20C19/5E8AFABA" Ref="#PWR?"  Part="1" 
AR Path="/5E8AFABA" Ref="#PWR09"  Part="1" 
F 0 "#PWR09" H 2000 1350 50  0001 C CNN
F 1 "ground" H 2000 1280 50  0001 C CNN
F 2 "" H 2000 1350 50  0001 C CNN
F 3 "" H 2000 1350 50  0000 C CNN
	1    2000 1350
	0    1    1    0   
$EndComp
$Comp
L combined:ground #PWR?
U 1 1 5E8AFAC2
P 2000 1150
AR Path="/5BE20C19/5E8AFAC2" Ref="#PWR?"  Part="1" 
AR Path="/5E8AFAC2" Ref="#PWR07"  Part="1" 
F 0 "#PWR07" H 2000 1150 50  0001 C CNN
F 1 "ground" H 2000 1080 50  0001 C CNN
F 2 "" H 2000 1150 50  0001 C CNN
F 3 "" H 2000 1150 50  0000 C CNN
	1    2000 1150
	0    1    1    0   
$EndComp
$Comp
L combined:ground #PWR?
U 1 1 5E8AFAC8
P 2000 950
AR Path="/5BE20C19/5E8AFAC8" Ref="#PWR?"  Part="1" 
AR Path="/5E8AFAC8" Ref="#PWR05"  Part="1" 
F 0 "#PWR05" H 2000 950 50  0001 C CNN
F 1 "ground" H 2000 880 50  0001 C CNN
F 2 "" H 2000 950 50  0001 C CNN
F 3 "" H 2000 950 50  0000 C CNN
	1    2000 950 
	0    1    -1   0   
$EndComp
$Comp
L resistor:resistor_0402 R?
U 1 1 5E8AFACE
P 14650 6400
AR Path="/5BE20C19/5E8AFACE" Ref="R?"  Part="1" 
AR Path="/5E8AFACE" Ref="R2"  Part="1" 
F 0 "R2" V 14550 6400 50  0000 C CNN
F 1 "240" V 14650 6400 50  0000 C CNN
F 2 "kicad_pcb:R_0603_1608Metric" V 14550 6200 50  0001 C CNN
F 3 "" H 14650 6400 50  0000 C CNN
	1    14650 6400
	-1   0    0    -1  
$EndComp
$Comp
L diode:QF838 D1
U 1 1 5E8AFAD4
P 14650 6800
AR Path="/5E8AFAD4" Ref="D1"  Part="1" 
AR Path="/5BE20C19/5E8AFAD4" Ref="D?"  Part="1" 
F 0 "D1" H 14650 6900 50  0000 C CNN
F 1 "QF838" H 14650 6650 50  0000 C CNN
F 2 "kicad_pcb:LED_0603_1608Metric" H 14650 6800 50  0001 C CNN
F 3 "$HOME/parts/id/QF838/LG_L29K.pdf" H 14650 6800 50  0001 C CNN
	1    14650 6800
	0    1    -1   0   
$EndComp
Text Label 7350 1500 0    50   ~ 0
LED0
Text Notes 1350 2250 0    50   ~ 0
M[2:0] =100\nSPI mode
$Comp
L misc:testpoint_1mm TP?
U 1 1 5E8AFB18
P 1450 1500
AR Path="/5BE20C19/5E8AFB18" Ref="TP?"  Part="1" 
AR Path="/5E8AFB18" Ref="TP1"  Part="1" 
F 0 "TP1" H 1600 1300 50  0000 L CNN
F 1 "testpoint_1mm" H 1650 1300 50  0001 L CNN
F 2 "kicad_pcb:TP_1mm" H 1650 1400 50  0001 L CNN
F 3 "" V 1700 1500 50  0001 C CNN
	1    1450 1500
	0    -1   -1   0   
$EndComp
$Comp
L misc:testpoint_1mm TP?
U 1 1 5E8AFB1E
P 1050 2050
AR Path="/5BE20C19/5E8AFB1E" Ref="TP?"  Part="1" 
AR Path="/5E8AFB1E" Ref="TP2"  Part="1" 
F 0 "TP2" H 1200 1850 50  0000 L CNN
F 1 "testpoint_1mm" H 1250 1850 50  0001 L CNN
F 2 "kicad_pcb:TP_1mm" H 1250 1950 50  0001 L CNN
F 3 "" V 1300 2050 50  0001 C CNN
	1    1050 2050
	-1   0    0    1   
$EndComp
Text Label 1750 2350 0    50   ~ 0
TCK
Text Label 1750 2450 0    50   ~ 0
TDI
Text Label 1750 2550 0    50   ~ 0
TDO
Text Label 1750 2650 0    50   ~ 0
TMS
$Comp
L connector:HF9MW J1
U 1 1 5EC60C6F
P 9850 6350
F 0 "J1" H 10000 6423 50  0000 C CNN
F 1 "HF9MW" H 9850 6400 50  0001 L CNN
F 2 "kicad_pcb:fpc_0.3_45_socket" H 9850 6400 50  0001 L CNN
F 3 "$PARTS/HF9MW/ENG_CD_2328724_3.pdf" V 10100 6350 50  0001 C CNN
	1    9850 6350
	1    0    0    -1  
$EndComp
$Comp
L power:+1V0 #PWR013
U 1 1 5F3AF9A6
P 2250 3450
F 0 "#PWR013" H 2250 3300 50  0001 C CNN
F 1 "+1V0" V 2265 3578 50  0000 L CNN
F 2 "" H 2250 3450 50  0001 C CNN
F 3 "" H 2250 3450 50  0001 C CNN
	1    2250 3450
	0    1    -1   0   
$EndComp
$Comp
L combined:ground #PWR?
U 1 1 61CA2D9F
P 2000 1050
AR Path="/5BE20C19/61CA2D9F" Ref="#PWR?"  Part="1" 
AR Path="/61CA2D9F" Ref="#PWR06"  Part="1" 
F 0 "#PWR06" H 2000 1050 50  0001 C CNN
F 1 "ground" H 2000 980 50  0001 C CNN
F 2 "" H 2000 1050 50  0001 C CNN
F 3 "" H 2000 1050 50  0000 C CNN
	1    2000 1050
	0    1    1    0   
$EndComp
Wire Wire Line
	9700 6550 9700 6650
Connection ~ 9700 6650
Wire Wire Line
	9700 6650 9700 6750
Connection ~ 9700 6750
Wire Wire Line
	9700 6750 9700 6850
Connection ~ 9700 6850
Wire Wire Line
	9700 6850 9700 6950
Connection ~ 9700 6950
Wire Wire Line
	9700 6950 9700 7050
Connection ~ 9700 7050
Wire Wire Line
	9700 7050 9700 7150
Connection ~ 9700 7150
Wire Wire Line
	9700 7150 9700 7250
Connection ~ 9700 7250
Wire Wire Line
	9700 7250 9700 7350
Connection ~ 9700 7350
Wire Wire Line
	9700 7350 9700 7450
Connection ~ 9700 7450
Wire Wire Line
	9700 7450 9700 7550
Connection ~ 9700 7550
Wire Wire Line
	9700 7550 9700 7650
Connection ~ 9700 7650
Wire Wire Line
	9700 7650 9700 7750
Connection ~ 9700 7750
Wire Wire Line
	9700 7750 9700 7850
Connection ~ 9700 7850
Wire Wire Line
	9700 7850 9700 7950
Connection ~ 9700 7950
Wire Wire Line
	9700 7950 9700 8050
Connection ~ 9700 8050
Wire Wire Line
	9700 8050 9700 8150
Connection ~ 9700 8150
Wire Wire Line
	9700 8150 9700 8250
Connection ~ 9700 8250
Wire Wire Line
	9700 8250 9700 8350
Connection ~ 9700 8350
Wire Wire Line
	9700 8350 9700 8450
Connection ~ 9700 8450
Wire Wire Line
	9700 8450 9700 8550
Wire Wire Line
	9700 8550 9600 8550
Wire Wire Line
	9600 8550 9600 8750
Wire Wire Line
	9600 8750 9700 8750
Connection ~ 9700 8550
Wire Wire Line
	9600 8750 9600 8850
Wire Wire Line
	9600 8850 9700 8850
Connection ~ 9600 8750
Wire Wire Line
	9600 8850 9600 8950
Connection ~ 9600 8850
$Comp
L combined:ground #PWR?
U 1 1 65AC1BF1
P 9600 8950
AR Path="/5BE20C19/65AC1BF1" Ref="#PWR?"  Part="1" 
AR Path="/5CDB68FA/65AC1BF1" Ref="#PWR?"  Part="1" 
AR Path="/65AC1BF1" Ref="#PWR025"  Part="1" 
F 0 "#PWR025" H 9600 8950 50  0001 C CNN
F 1 "ground" H 9600 8880 50  0001 C CNN
F 2 "" H 9600 8950 50  0001 C CNN
F 3 "" H 9600 8950 50  0000 C CNN
	1    9600 8950
	1    0    0    -1  
$EndComp
Wire Wire Line
	10300 6500 10400 6500
Wire Wire Line
	10400 6500 10400 6150
Wire Wire Line
	9650 6150 9650 6450
Wire Wire Line
	9650 6450 9700 6450
Wire Wire Line
	9700 8650 9450 8650
Wire Wire Line
	9450 8650 9450 9050
Wire Wire Line
	9450 9050 10350 9050
Wire Wire Line
	10350 9050 10350 8600
Wire Wire Line
	10350 8600 10300 8600
Wire Wire Line
	10400 6150 9650 6150
$Comp
L connector:HF9MW J2
U 1 1 5F047D48
P 11100 6350
F 0 "J2" H 11250 6423 50  0000 C CNN
F 1 "HF9MW" H 11100 6400 50  0001 L CNN
F 2 "kicad_pcb:fpc_0.3_45_socket" H 11100 6400 50  0001 L CNN
F 3 "$PARTS/HF9MW/ENG_CD_2328724_3.pdf" V 11350 6350 50  0001 C CNN
	1    11100 6350
	1    0    0    -1  
$EndComp
Wire Wire Line
	10950 6550 10950 6650
Connection ~ 10950 6650
Wire Wire Line
	10950 6650 10950 6750
Connection ~ 10950 6750
Wire Wire Line
	10950 6750 10950 6850
Connection ~ 10950 6850
Wire Wire Line
	10950 6850 10950 6950
Connection ~ 10950 6950
Wire Wire Line
	10950 6950 10950 7050
Connection ~ 10950 7050
Wire Wire Line
	10950 7050 10950 7150
Connection ~ 10950 7150
Wire Wire Line
	10950 7150 10950 7250
Connection ~ 10950 7250
Wire Wire Line
	10950 7250 10950 7350
Connection ~ 10950 7350
Wire Wire Line
	10950 7350 10950 7450
Connection ~ 10950 7450
Wire Wire Line
	10950 7450 10950 7550
Connection ~ 10950 7550
Wire Wire Line
	10950 7550 10950 7650
Connection ~ 10950 7650
Wire Wire Line
	10950 7650 10950 7750
Connection ~ 10950 7750
Wire Wire Line
	10950 7750 10950 7850
Connection ~ 10950 7850
Wire Wire Line
	10950 7850 10950 7950
Connection ~ 10950 7950
Wire Wire Line
	10950 7950 10950 8050
Connection ~ 10950 8050
Wire Wire Line
	10950 8050 10950 8150
Connection ~ 10950 8150
Wire Wire Line
	10950 8150 10950 8250
Connection ~ 10950 8250
Wire Wire Line
	10950 8250 10950 8350
Connection ~ 10950 8350
Wire Wire Line
	10950 8350 10950 8450
Connection ~ 10950 8450
Wire Wire Line
	10950 8450 10950 8550
Wire Wire Line
	10950 8550 10850 8550
Wire Wire Line
	10850 8550 10850 8750
Wire Wire Line
	10850 8750 10950 8750
Connection ~ 10950 8550
Wire Wire Line
	10850 8750 10850 8850
Wire Wire Line
	10850 8850 10950 8850
Connection ~ 10850 8750
Wire Wire Line
	10850 8850 10850 8950
Connection ~ 10850 8850
$Comp
L combined:ground #PWR?
U 1 1 5F047D82
P 10850 8950
AR Path="/5BE20C19/5F047D82" Ref="#PWR?"  Part="1" 
AR Path="/5CDB68FA/5F047D82" Ref="#PWR?"  Part="1" 
AR Path="/5F047D82" Ref="#PWR029"  Part="1" 
F 0 "#PWR029" H 10850 8950 50  0001 C CNN
F 1 "ground" H 10850 8880 50  0001 C CNN
F 2 "" H 10850 8950 50  0001 C CNN
F 3 "" H 10850 8950 50  0000 C CNN
	1    10850 8950
	1    0    0    -1  
$EndComp
Wire Wire Line
	11550 6500 11650 6500
Wire Wire Line
	11650 6500 11650 6150
Wire Wire Line
	10900 6150 10900 6450
Wire Wire Line
	10900 6450 10950 6450
Wire Wire Line
	10950 8650 10700 8650
Wire Wire Line
	10700 8650 10700 9050
Wire Wire Line
	10700 9050 11600 9050
Wire Wire Line
	11600 9050 11600 8600
Wire Wire Line
	11600 8600 11550 8600
Wire Wire Line
	11650 6150 10900 6150
Text Label 11850 7600 2    50   ~ 0
IO_T5
Wire Wire Line
	11850 7600 11550 7600
Text Label 11850 7700 2    50   ~ 0
IO_R6
Wire Wire Line
	11850 7700 11550 7700
Text Label 11850 7800 2    50   ~ 0
IO_R7
Wire Wire Line
	11850 7800 11550 7800
Text Label 11850 7900 2    50   ~ 0
IO_T7
Wire Wire Line
	11850 7900 11550 7900
Wire Wire Line
	11850 8300 11550 8300
Text Label 11850 8200 2    50   ~ 0
IO_P9
Wire Wire Line
	11850 8200 11550 8200
Text Label 11850 8300 2    50   ~ 0
IO_T9
Wire Wire Line
	11850 8100 11550 8100
Text Label 11850 8000 2    50   ~ 0
IO_R8
Wire Wire Line
	11850 8000 11550 8000
Text Label 11850 8100 2    50   ~ 0
IO_T8
Wire Wire Line
	7350 1500 7650 1500
$Comp
L ic:784HG U2
U 1 1 607706B6
P 9550 9550
F 0 "U2" H 9550 9600 50  0000 L CNN
F 1 "‎S25FS128SDSMFI1D0‎" H 10000 9600 50  0000 L CNN
F 2 "Package_SO:SOIC-8_5.23x5.23mm_P1.27mm" H 9850 9600 50  0001 L CNN
F 3 "$PARTS/784HG/w25q32jv dtr revf 02242017.pdf" V 9800 9550 50  0001 C CNN
	1    9550 9550
	1    0    0    -1  
$EndComp
$Comp
L combined:ground #PWR?
U 1 1 60772604
P 9950 10250
AR Path="/5CDB68FA/60772604" Ref="#PWR?"  Part="1" 
AR Path="/5DFE1F9E/60772604" Ref="#PWR?"  Part="1" 
AR Path="/60772604" Ref="#PWR028"  Part="1" 
F 0 "#PWR028" H 9950 10250 50  0001 C CNN
F 1 "ground" H 9950 10180 50  0001 C CNN
F 2 "" H 9950 10250 50  0001 C CNN
F 3 "" H 9950 10250 50  0000 C CNN
	1    9950 10250
	1    0    0    -1  
$EndComp
Wire Wire Line
	9100 10050 9400 10050
Text Label 9100 10050 0    50   ~ 0
SCK
Wire Wire Line
	9100 9950 9400 9950
Text Label 9100 9950 0    50   ~ 0
MOSI
Wire Wire Line
	10600 9850 10300 9850
Text Label 10600 9850 2    50   ~ 0
MISO
Wire Wire Line
	9100 9850 9250 9850
Text Label 9100 9850 0    50   ~ 0
~CS
Wire Wire Line
	9400 9750 9400 9650
Wire Wire Line
	9400 9450 9950 9450
Connection ~ 9400 9650
Wire Wire Line
	9400 9650 9400 9450
Wire Wire Line
	5500 9850 5850 9850
Text Label 5850 9850 2    50   ~ 0
3V6A
Text Label 10300 9050 2    50   ~ 0
3V6A
Text Label 11500 9050 2    50   ~ 0
3V6A
$Comp
L connector:HF9MW J3
U 1 1 61B82B1A
P 12250 6350
F 0 "J3" H 12400 6423 50  0000 C CNN
F 1 "HF9MW" H 12250 6400 50  0001 L CNN
F 2 "kicad_pcb:fpc_0.3_45_socket" H 12250 6400 50  0001 L CNN
F 3 "$PARTS/HF9MW/ENG_CD_2328724_3.pdf" V 12500 6350 50  0001 C CNN
	1    12250 6350
	1    0    0    -1  
$EndComp
Wire Wire Line
	12100 6550 12100 6650
Connection ~ 12100 6650
Wire Wire Line
	12100 6650 12100 6750
Connection ~ 12100 6750
Wire Wire Line
	12100 6750 12100 6850
Connection ~ 12100 6850
Wire Wire Line
	12100 6850 12100 6950
Connection ~ 12100 6950
Wire Wire Line
	12100 6950 12100 7050
Connection ~ 12100 7050
Wire Wire Line
	12100 7050 12100 7150
Connection ~ 12100 7150
Wire Wire Line
	12100 7150 12100 7250
Connection ~ 12100 7250
Wire Wire Line
	12100 7250 12100 7350
Connection ~ 12100 7350
Wire Wire Line
	12100 7350 12100 7450
Connection ~ 12100 7450
Wire Wire Line
	12100 7450 12100 7550
Connection ~ 12100 7550
Wire Wire Line
	12100 7550 12100 7650
Connection ~ 12100 7650
Wire Wire Line
	12100 7650 12100 7750
Connection ~ 12100 7750
Wire Wire Line
	12100 7750 12100 7850
Connection ~ 12100 7850
Wire Wire Line
	12100 7850 12100 7950
Connection ~ 12100 7950
Wire Wire Line
	12100 7950 12100 8050
Connection ~ 12100 8050
Wire Wire Line
	12100 8050 12100 8150
Connection ~ 12100 8150
Wire Wire Line
	12100 8150 12100 8250
Connection ~ 12100 8250
Wire Wire Line
	12100 8250 12100 8350
Connection ~ 12100 8350
Wire Wire Line
	12100 8350 12100 8450
Connection ~ 12100 8450
Wire Wire Line
	12100 8450 12100 8550
Wire Wire Line
	12100 8550 12000 8550
Wire Wire Line
	12000 8550 12000 8750
Wire Wire Line
	12000 8750 12100 8750
Connection ~ 12100 8550
Wire Wire Line
	12000 8750 12000 8850
Wire Wire Line
	12000 8850 12100 8850
Connection ~ 12000 8750
Wire Wire Line
	12000 8850 12000 8950
Connection ~ 12000 8850
$Comp
L combined:ground #PWR?
U 1 1 61B82B54
P 12000 8950
AR Path="/5BE20C19/61B82B54" Ref="#PWR?"  Part="1" 
AR Path="/5CDB68FA/61B82B54" Ref="#PWR?"  Part="1" 
AR Path="/61B82B54" Ref="#PWR031"  Part="1" 
F 0 "#PWR031" H 12000 8950 50  0001 C CNN
F 1 "ground" H 12000 8880 50  0001 C CNN
F 2 "" H 12000 8950 50  0001 C CNN
F 3 "" H 12000 8950 50  0000 C CNN
	1    12000 8950
	1    0    0    -1  
$EndComp
Wire Wire Line
	12700 6500 12800 6500
Wire Wire Line
	12800 6500 12800 6150
Wire Wire Line
	12050 6150 12050 6450
Wire Wire Line
	12050 6450 12100 6450
Wire Wire Line
	12100 8650 11850 8650
Wire Wire Line
	11850 8650 11850 9050
Wire Wire Line
	11850 9050 12750 9050
Wire Wire Line
	12750 9050 12750 8600
Wire Wire Line
	12750 8600 12700 8600
Wire Wire Line
	12800 6150 12050 6150
Text Label 12650 9050 2    50   ~ 0
3V6A
$Comp
L connector:HF9MW J4
U 1 1 61E08471
P 13500 6350
F 0 "J4" H 13650 6423 50  0000 C CNN
F 1 "HF9MW" H 13500 6400 50  0001 L CNN
F 2 "kicad_pcb:fpc_0.3_45_socket" H 13500 6400 50  0001 L CNN
F 3 "$PARTS/HF9MW/ENG_CD_2328724_3.pdf" V 13750 6350 50  0001 C CNN
	1    13500 6350
	1    0    0    -1  
$EndComp
Wire Wire Line
	13350 6550 13350 6650
Connection ~ 13350 6650
Wire Wire Line
	13350 6650 13350 6750
Connection ~ 13350 6750
Wire Wire Line
	13350 6750 13350 6850
Connection ~ 13350 6850
Wire Wire Line
	13350 6850 13350 6950
Connection ~ 13350 6950
Wire Wire Line
	13350 6950 13350 7050
Connection ~ 13350 7050
Wire Wire Line
	13350 7050 13350 7150
Connection ~ 13350 7150
Wire Wire Line
	13350 7150 13350 7250
Connection ~ 13350 7250
Wire Wire Line
	13350 7250 13350 7350
Connection ~ 13350 7350
Wire Wire Line
	13350 7350 13350 7450
Connection ~ 13350 7450
Wire Wire Line
	13350 7450 13350 7550
Connection ~ 13350 7550
Wire Wire Line
	13350 7550 13350 7650
Connection ~ 13350 7650
Wire Wire Line
	13350 7650 13350 7750
Connection ~ 13350 7750
Wire Wire Line
	13350 7750 13350 7850
Connection ~ 13350 7850
Wire Wire Line
	13350 7850 13350 7950
Connection ~ 13350 7950
Wire Wire Line
	13350 7950 13350 8050
Connection ~ 13350 8050
Wire Wire Line
	13350 8050 13350 8150
Connection ~ 13350 8150
Wire Wire Line
	13350 8150 13350 8250
Connection ~ 13350 8250
Wire Wire Line
	13350 8250 13350 8350
Connection ~ 13350 8350
Wire Wire Line
	13350 8350 13350 8450
Connection ~ 13350 8450
Wire Wire Line
	13350 8450 13350 8550
Wire Wire Line
	13350 8550 13250 8550
Wire Wire Line
	13250 8550 13250 8750
Wire Wire Line
	13250 8750 13350 8750
Connection ~ 13350 8550
Wire Wire Line
	13250 8750 13250 8850
Wire Wire Line
	13250 8850 13350 8850
Connection ~ 13250 8750
Wire Wire Line
	13250 8850 13250 8950
Connection ~ 13250 8850
$Comp
L combined:ground #PWR?
U 1 1 61E084AB
P 13250 8950
AR Path="/5BE20C19/61E084AB" Ref="#PWR?"  Part="1" 
AR Path="/5CDB68FA/61E084AB" Ref="#PWR?"  Part="1" 
AR Path="/61E084AB" Ref="#PWR033"  Part="1" 
F 0 "#PWR033" H 13250 8950 50  0001 C CNN
F 1 "ground" H 13250 8880 50  0001 C CNN
F 2 "" H 13250 8950 50  0001 C CNN
F 3 "" H 13250 8950 50  0000 C CNN
	1    13250 8950
	1    0    0    -1  
$EndComp
Wire Wire Line
	13950 6500 14050 6500
Wire Wire Line
	14050 6500 14050 6150
Wire Wire Line
	13300 6150 13300 6450
Wire Wire Line
	13300 6450 13350 6450
Wire Wire Line
	13350 8650 13100 8650
Wire Wire Line
	13100 9050 14000 9050
Wire Wire Line
	14000 9050 14000 8600
Wire Wire Line
	14000 8600 13950 8600
Wire Wire Line
	14050 6150 13300 6150
Text Label 13900 9050 2    50   ~ 0
3V6A
Wire Wire Line
	13100 8650 13100 9050
Text Label 14250 6600 2    50   ~ 0
IO_J15
Wire Wire Line
	14250 6600 13950 6600
Text Label 4050 7150 2    50   ~ 0
IO_J16
Wire Wire Line
	4050 7150 3750 7150
Text Label 13000 8500 2    50   ~ 0
IO_K15
Wire Wire Line
	13000 8500 12700 8500
Text Label 13000 8400 2    50   ~ 0
IO_K16
Wire Wire Line
	13000 8400 12700 8400
Text Label 13000 8300 2    50   ~ 0
IO_L14
Wire Wire Line
	13000 8300 12700 8300
Text Label 13000 8200 2    50   ~ 0
IO_M14
Wire Wire Line
	13000 8200 12700 8200
Wire Wire Line
	13000 8100 12700 8100
Text Label 13000 8000 2    50   ~ 0
IO_M15
Wire Wire Line
	13000 8000 12700 8000
Wire Wire Line
	13000 7900 12700 7900
Text Label 13000 7800 2    50   ~ 0
IO_P16
Wire Wire Line
	13000 7800 12700 7800
Text Label 13000 7700 2    50   ~ 0
IO_P15
Wire Wire Line
	13000 7700 12700 7700
Text Label 13000 7600 2    50   ~ 0
IO_R16
Wire Wire Line
	13000 7600 12700 7600
Text Label 13000 7200 2    50   ~ 0
IO_T14
Wire Wire Line
	13000 7200 12700 7200
Text Label 13000 7100 2    50   ~ 0
IO_R13
Wire Wire Line
	13000 7100 12700 7100
Text Label 13000 7000 2    50   ~ 0
IO_T13
Wire Wire Line
	13000 7000 12700 7000
Text Label 13000 6900 2    50   ~ 0
IO_R12
Wire Wire Line
	13000 6900 12700 6900
Text Label 13000 6800 2    50   ~ 0
IO_T12
Wire Wire Line
	13000 6800 12700 6800
Text Label 13000 6700 2    50   ~ 0
IO_R11
Wire Wire Line
	13000 6700 12700 6700
Text Label 13000 6600 2    50   ~ 0
IO_P11
Wire Wire Line
	13000 6600 12700 6600
Text Label 14250 6700 2    50   ~ 0
IO_H16
Wire Wire Line
	14250 6700 13950 6700
Text Label 14250 6800 2    50   ~ 0
IO_G15
Wire Wire Line
	14250 6800 13950 6800
Text Label 14250 6900 2    50   ~ 0
IO_G16
Wire Wire Line
	14250 6900 13950 6900
$Comp
L misc:mounting_hole MH1
U 1 1 5BBD5855
P 2400 10050
F 0 "MH1" H 2550 9850 50  0000 L CNN
F 1 "mounting_hole" H 2600 9850 50  0001 L CNN
F 2 "MountingHole:MountingHole_2.5mm_Pad_Via" H 2600 9950 50  0001 L CNN
F 3 "" V 2650 10050 50  0001 C CNN
	1    2400 10050
	-1   0    0    1   
$EndComp
$Comp
L combined:ground #PWR015
U 1 1 5BBD592B
P 2500 9850
F 0 "#PWR015" H 2500 9850 50  0001 C CNN
F 1 "ground" H 2500 9780 50  0001 C CNN
F 2 "" H 2500 9850 50  0001 C CNN
F 3 "" H 2500 9850 50  0000 C CNN
	1    2500 9850
	0    -1   -1   0   
$EndComp
$Comp
L misc:mounting_hole MH2
U 1 1 5BBD596A
P 2400 10200
F 0 "MH2" H 2550 10000 50  0000 L CNN
F 1 "mounting_hole" H 2600 10000 50  0001 L CNN
F 2 "MountingHole:MountingHole_2.5mm_Pad_Via" H 2600 10100 50  0001 L CNN
F 3 "" V 2650 10200 50  0001 C CNN
	1    2400 10200
	-1   0    0    1   
$EndComp
$Comp
L combined:ground #PWR016
U 1 1 5BBD5970
P 2500 10000
F 0 "#PWR016" H 2500 10000 50  0001 C CNN
F 1 "ground" H 2500 9930 50  0001 C CNN
F 2 "" H 2500 10000 50  0001 C CNN
F 3 "" H 2500 10000 50  0000 C CNN
	1    2500 10000
	0    -1   -1   0   
$EndComp
$Comp
L misc:mounting_hole MH3
U 1 1 5BBD5996
P 2400 10350
F 0 "MH3" H 2550 10150 50  0000 L CNN
F 1 "mounting_hole" H 2600 10150 50  0001 L CNN
F 2 "MountingHole:MountingHole_2.5mm_Pad_Via" H 2600 10250 50  0001 L CNN
F 3 "" V 2650 10350 50  0001 C CNN
	1    2400 10350
	-1   0    0    1   
$EndComp
$Comp
L combined:ground #PWR017
U 1 1 5BBD599C
P 2500 10150
F 0 "#PWR017" H 2500 10150 50  0001 C CNN
F 1 "ground" H 2500 10080 50  0001 C CNN
F 2 "" H 2500 10150 50  0001 C CNN
F 3 "" H 2500 10150 50  0000 C CNN
	1    2500 10150
	0    -1   -1   0   
$EndComp
$Comp
L misc:mounting_hole MH4
U 1 1 5BBD59A2
P 2400 10500
F 0 "MH4" H 2550 10300 50  0000 L CNN
F 1 "mounting_hole" H 2600 10300 50  0001 L CNN
F 2 "MountingHole:MountingHole_2.5mm_Pad_Via" H 2600 10400 50  0001 L CNN
F 3 "" V 2650 10500 50  0001 C CNN
	1    2400 10500
	-1   0    0    1   
$EndComp
$Comp
L combined:ground #PWR018
U 1 1 5BBD59A8
P 2500 10300
F 0 "#PWR018" H 2500 10300 50  0001 C CNN
F 1 "ground" H 2500 10230 50  0001 C CNN
F 2 "" H 2500 10300 50  0001 C CNN
F 3 "" H 2500 10300 50  0000 C CNN
	1    2500 10300
	0    -1   -1   0   
$EndComp
$Comp
L misc:fiducial FID1
U 1 1 5BBD5A70
P 2700 9850
F 0 "FID1" H 2800 9850 50  0000 L CNN
F 1 "fiducial" H 2850 9850 50  0001 L CNN
F 2 "kicad_pcb:fiducial" H 2850 9950 50  0001 L CNN
F 3 "" V 2900 10050 50  0001 C CNN
	1    2700 9850
	1    0    0    -1  
$EndComp
$Comp
L misc:fiducial FID2
U 1 1 5BBD5AC3
P 2700 10000
F 0 "FID2" H 2800 10000 50  0000 L CNN
F 1 "fiducial" H 2850 10000 50  0001 L CNN
F 2 "kicad_pcb:fiducial" H 2850 10100 50  0001 L CNN
F 3 "" V 2900 10200 50  0001 C CNN
	1    2700 10000
	1    0    0    -1  
$EndComp
$Comp
L misc:fiducial FID3
U 1 1 5BBD5B16
P 2700 10150
F 0 "FID3" H 2800 10150 50  0000 L CNN
F 1 "fiducial" H 2850 10150 50  0001 L CNN
F 2 "kicad_pcb:fiducial" H 2850 10250 50  0001 L CNN
F 3 "" V 2900 10350 50  0001 C CNN
	1    2700 10150
	1    0    0    -1  
$EndComp
$Comp
L misc:fiducial FID4
U 1 1 5BBD5B1C
P 2700 10300
F 0 "FID4" H 2800 10300 50  0000 L CNN
F 1 "fiducial" H 2850 10300 50  0001 L CNN
F 2 "kicad_pcb:fiducial" H 2850 10400 50  0001 L CNN
F 3 "" V 2900 10500 50  0001 C CNN
	1    2700 10300
	1    0    0    -1  
$EndComp
$Comp
L misc:tooling_hole TH1
U 1 1 5BBD5C94
P 3100 10150
F 0 "TH1" H 3200 10150 50  0000 L CNN
F 1 "tooling_hole" H 3250 10150 50  0001 L CNN
F 2 "kicad_pcb:tooling_hole_2.55" H 3250 10250 50  0001 L CNN
F 3 "" V 3300 10350 50  0001 C CNN
	1    3100 10150
	1    0    0    -1  
$EndComp
$Comp
L misc:tooling_hole TH2
U 1 1 5BBD5C9A
P 3100 10300
F 0 "TH2" H 3200 10300 50  0000 L CNN
F 1 "tooling_hole" H 3250 10300 50  0001 L CNN
F 2 "kicad_pcb:tooling_hole_2.55" H 3250 10400 50  0001 L CNN
F 3 "" V 3300 10500 50  0001 C CNN
	1    3100 10300
	1    0    0    -1  
$EndComp
Wire Wire Line
	11850 8400 11550 8400
Text Label 11850 8400 2    50   ~ 0
IO_R10
Wire Wire Line
	11850 8500 11550 8500
Text Label 11850 8500 2    50   ~ 0
IO_T10
Wire Wire Line
	11850 7400 11550 7400
Wire Wire Line
	11850 7500 11550 7500
Text Label 11850 7400 2    50   ~ 0
IO_T4
Text Label 11850 7500 2    50   ~ 0
IO_R5
Wire Wire Line
	11850 6900 11550 6900
Wire Wire Line
	11850 7000 11550 7000
Text Label 11850 6900 2    50   ~ 0
IO_R2
Text Label 11850 7000 2    50   ~ 0
IO_T2
Wire Wire Line
	11850 7100 11550 7100
Wire Wire Line
	11850 7200 11550 7200
Text Label 11850 7100 2    50   ~ 0
IO_R3
Text Label 11850 7200 2    50   ~ 0
IO_T3
Wire Wire Line
	11850 6700 11550 6700
Wire Wire Line
	11850 6800 11550 6800
Text Label 11850 6700 2    50   ~ 0
IO_P3
Text Label 11850 6800 2    50   ~ 0
IO_R1
Wire Wire Line
	10600 7600 10300 7600
Wire Wire Line
	10600 7700 10300 7700
Text Label 10600 7600 2    50   ~ 0
IO_B6
Text Label 10600 7700 2    50   ~ 0
IO_A5
$Comp
L connector:6BPPF P?
U 1 1 607D3F71
P 3600 7150
AR Path="/5BE20C19/607D3F71" Ref="P?"  Part="1" 
AR Path="/607D3F71" Ref="P3"  Part="1" 
F 0 "P3" H 3554 7297 50  0000 C CNN
F 1 "6BPPF" H 3600 7300 50  0001 C CNN
F 2 "kicad_pcb:U.FL_Molex_MCRF_73412-0110_Vertical" H 3600 7300 50  0001 C CNN
F 3 "$PARTS/6BPPF/A-1JB.pdf" H 3600 7150 50  0001 C CNN
	1    3600 7150
	-1   0    0    -1  
$EndComp
$Comp
L combined:ground #PWR?
U 1 1 607D3F67
P 3600 7350
AR Path="/5BE20C19/607D3F67" Ref="#PWR?"  Part="1" 
AR Path="/607D3F67" Ref="#PWR020"  Part="1" 
F 0 "#PWR020" H 3600 7350 50  0001 C CNN
F 1 "ground" H 3600 7280 50  0001 C CNN
F 2 "" H 3600 7350 50  0001 C CNN
F 3 "" H 3600 7350 50  0000 C CNN
	1    3600 7350
	-1   0    0    -1  
$EndComp
$Sheet
S 15100 7200 750  1100
U 61CF01D5
F0 "gbeth" 50
F1 "gbeth.sch" 50
F2 "TXD0" I L 15100 7300 50 
F3 "TXD1" I L 15100 7400 50 
F4 "TXD2" I L 15100 7500 50 
F5 "TXD3" I L 15100 7600 50 
F6 "TXEN" I L 15100 7700 50 
F7 "TXCLK" I L 15100 7800 50 
F8 "RXD0" O R 15850 7300 50 
F9 "RXD1" O R 15850 7400 50 
F10 "RXD2" O R 15850 7500 50 
F11 "RXD3" O R 15850 7600 50 
F12 "RXDV" O R 15850 7700 50 
F13 "RXCLK" O R 15850 7800 50 
F14 "MDC" I L 15100 8000 50 
F15 "MDIO" B L 15100 8100 50 
F16 "~RESET" I L 15100 8200 50 
F17 "ECLK" I L 15100 7900 50 
$EndSheet
Text Label 14800 7300 0    50   ~ 0
ETXD0
Wire Wire Line
	14800 7300 15100 7300
Text Label 14800 7400 0    50   ~ 0
ETXD1
Wire Wire Line
	14800 7400 15100 7400
Text Label 14800 7500 0    50   ~ 0
ETXD2
Wire Wire Line
	14800 7500 15100 7500
Text Label 14800 7600 0    50   ~ 0
ETXD3
Wire Wire Line
	14800 7600 15100 7600
Text Label 14800 7700 0    50   ~ 0
ETXEN
Wire Wire Line
	14800 7700 15100 7700
Text Label 14800 7800 0    50   ~ 0
ETXCLK
Wire Wire Line
	14800 7800 15100 7800
Text Label 14800 7900 0    50   ~ 0
ECLK
Wire Wire Line
	14800 7900 15100 7900
Text Label 14800 8000 0    50   ~ 0
EMDC
Wire Wire Line
	14800 8000 15100 8000
Text Label 14800 8100 0    50   ~ 0
EMDIO
Wire Wire Line
	14800 8100 15100 8100
Text Label 16150 7300 2    50   ~ 0
ERXD0
Wire Wire Line
	16150 7300 15850 7300
Text Label 16150 7400 2    50   ~ 0
ERXD1
Wire Wire Line
	16150 7400 15850 7400
Text Label 16150 7500 2    50   ~ 0
ERXD2
Wire Wire Line
	16150 7500 15850 7500
Text Label 16150 7600 2    50   ~ 0
ERXD3
Wire Wire Line
	16150 7600 15850 7600
Text Label 16150 7700 2    50   ~ 0
ERXDV
Wire Wire Line
	16150 7700 15850 7700
Text Label 16150 7800 2    50   ~ 0
ERXCLK
Wire Wire Line
	16150 7800 15850 7800
Text Label 8950 2500 0    50   ~ 0
ECLK
Wire Wire Line
	8950 2500 9250 2500
Text Label 8950 5500 0    50   ~ 0
ETXD0
Wire Wire Line
	8950 5500 9250 5500
Text Label 8950 5400 0    50   ~ 0
ETXD1
Wire Wire Line
	8950 5400 9250 5400
Text Label 8950 5300 0    50   ~ 0
ETXD2
Wire Wire Line
	8950 5300 9250 5300
Text Label 8950 5100 0    50   ~ 0
ETXD3
Wire Wire Line
	8950 5100 9250 5100
Text Label 8950 5600 0    50   ~ 0
ETXCLK
Wire Wire Line
	8950 5600 9250 5600
Text Label 8950 3800 0    50   ~ 0
EMDC
Wire Wire Line
	8950 3800 9250 3800
Text Label 8950 2700 0    50   ~ 0
EMDIO
Wire Wire Line
	8950 2700 9250 2700
Text Label 8950 4200 0    50   ~ 0
ERXD0
Wire Wire Line
	8950 4200 9250 4200
Text Label 8950 4700 0    50   ~ 0
ERXD1
Wire Wire Line
	8950 4700 9250 4700
Text Label 8950 4800 0    50   ~ 0
ERXD2
Wire Wire Line
	8950 4800 9250 4800
Text Label 8950 4900 0    50   ~ 0
ERXD3
Wire Wire Line
	8950 4900 9250 4900
Text Label 8950 4100 0    50   ~ 0
ERXDV
Wire Wire Line
	8950 4100 9250 4100
Text Label 8950 2900 0    50   ~ 0
ERXCLK
Wire Wire Line
	8950 2900 9250 2900
Text Label 14800 8200 0    50   ~ 0
~ERST
Wire Wire Line
	14800 8200 15100 8200
Text Label 8950 2800 0    50   ~ 0
~ERST
Wire Wire Line
	8950 2800 9250 2800
$Comp
L power:+1V8 #PWR026
U 1 1 5FF24E35
P 9650 6150
F 0 "#PWR026" H 9650 6000 50  0001 C CNN
F 1 "+1V8" H 9665 6323 50  0000 C CNN
F 2 "" H 9650 6150 50  0001 C CNN
F 3 "" H 9650 6150 50  0001 C CNN
	1    9650 6150
	1    0    0    -1  
$EndComp
Connection ~ 9650 6150
$Comp
L power:+1V8 #PWR030
U 1 1 5FF2AF44
P 10900 6150
F 0 "#PWR030" H 10900 6000 50  0001 C CNN
F 1 "+1V8" H 10915 6323 50  0000 C CNN
F 2 "" H 10900 6150 50  0001 C CNN
F 3 "" H 10900 6150 50  0001 C CNN
	1    10900 6150
	1    0    0    -1  
$EndComp
Connection ~ 10900 6150
$Comp
L power:+1V8 #PWR032
U 1 1 5FF2CE34
P 12050 6150
F 0 "#PWR032" H 12050 6000 50  0001 C CNN
F 1 "+1V8" H 12065 6323 50  0000 C CNN
F 2 "" H 12050 6150 50  0001 C CNN
F 3 "" H 12050 6150 50  0001 C CNN
	1    12050 6150
	1    0    0    -1  
$EndComp
Connection ~ 12050 6150
$Comp
L power:+1V8 #PWR034
U 1 1 5FF2ECD8
P 13300 6150
F 0 "#PWR034" H 13300 6000 50  0001 C CNN
F 1 "+1V8" H 13315 6323 50  0000 C CNN
F 2 "" H 13300 6150 50  0001 C CNN
F 3 "" H 13300 6150 50  0001 C CNN
	1    13300 6150
	1    0    0    -1  
$EndComp
Connection ~ 13300 6150
$Comp
L power:+1V8 #PWR014
U 1 1 5FF91725
P 2250 4450
F 0 "#PWR014" H 2250 4300 50  0001 C CNN
F 1 "+1V8" V 2265 4578 50  0000 L CNN
F 2 "" H 2250 4450 50  0001 C CNN
F 3 "" H 2250 4450 50  0001 C CNN
	1    2250 4450
	0    1    -1   0   
$EndComp
$Comp
L combined:ground #PWR?
U 1 1 60414A1D
P 2000 850
AR Path="/5BE20C19/60414A1D" Ref="#PWR?"  Part="1" 
AR Path="/60414A1D" Ref="#PWR04"  Part="1" 
F 0 "#PWR04" H 2000 850 50  0001 C CNN
F 1 "ground" H 2000 780 50  0001 C CNN
F 2 "" H 2000 850 50  0001 C CNN
F 3 "" H 2000 850 50  0000 C CNN
	1    2000 850 
	0    1    1    0   
$EndComp
Wire Wire Line
	1700 1750 2000 1750
Text Label 1700 1750 0    50   ~ 0
SCK
Wire Wire Line
	3350 1900 3650 1900
Text Label 3350 1900 0    50   ~ 0
~CS
Wire Wire Line
	3350 900  3650 900 
Text Label 3350 900  0    50   ~ 0
MOSI
Wire Wire Line
	3350 1000 3650 1000
Text Label 3350 1000 0    50   ~ 0
MISO
$Comp
L connector:JTAG P1
U 1 1 60DA5818
P 1050 2250
F 0 "P1" H 1378 1946 50  0000 L CNN
F 1 "JTAG" H 1378 1855 50  0000 L CNN
F 2 "Connector_Hirose:Hirose_DF13-06P-1.25DSA_1x06_P1.25mm_Vertical" H 1050 2300 50  0001 L CNN
F 3 "" V 1300 2250 50  0000 C CNN
	1    1050 2250
	-1   0    0    -1  
$EndComp
Wire Wire Line
	1150 2650 1350 2650
$Comp
L power:+1V8 #PWR02
U 1 1 610DA260
P 1200 2300
F 0 "#PWR02" H 1200 2150 50  0001 C CNN
F 1 "+1V8" H 1215 2473 50  0000 C CNN
F 2 "" H 1200 2300 50  0001 C CNN
F 3 "" H 1200 2300 50  0001 C CNN
	1    1200 2300
	-1   0    0    -1  
$EndComp
Wire Wire Line
	1150 2350 1200 2350
Wire Wire Line
	1200 2350 1200 2300
Wire Wire Line
	1150 2850 1200 2850
Wire Wire Line
	1200 2850 1200 2900
$Comp
L power:+1V8 #PWR027
U 1 1 61B9893A
P 9950 9450
F 0 "#PWR027" H 9950 9300 50  0001 C CNN
F 1 "+1V8" H 9965 9623 50  0000 C CNN
F 2 "" H 9950 9450 50  0001 C CNN
F 3 "" H 9950 9450 50  0001 C CNN
	1    9950 9450
	1    0    0    -1  
$EndComp
Connection ~ 9950 9450
$Comp
L combined:ground #PWR?
U 1 1 61F5041A
P 2000 2250
AR Path="/5BE20C19/61F5041A" Ref="#PWR?"  Part="1" 
AR Path="/61F5041A" Ref="#PWR012"  Part="1" 
F 0 "#PWR012" H 2000 2250 50  0001 C CNN
F 1 "ground" H 2000 2180 50  0001 C CNN
F 2 "" H 2000 2250 50  0001 C CNN
F 3 "" H 2000 2250 50  0000 C CNN
	1    2000 2250
	0    1    -1   0   
$EndComp
$Comp
L misc:testpoint_1mm TP?
U 1 1 61F5522F
P 1050 2150
AR Path="/5BE20C19/61F5522F" Ref="TP?"  Part="1" 
AR Path="/61F5522F" Ref="TP3"  Part="1" 
F 0 "TP3" H 1200 1950 50  0000 L CNN
F 1 "testpoint_1mm" H 1250 1950 50  0001 L CNN
F 2 "kicad_pcb:TP_1mm" H 1250 2050 50  0001 L CNN
F 3 "" V 1300 2150 50  0001 C CNN
	1    1050 2150
	-1   0    0    1   
$EndComp
$Comp
L resistor:resistor_0402 R?
U 1 1 6202FFC9
P 9250 9500
AR Path="/5BE20C19/6202FFC9" Ref="R?"  Part="1" 
AR Path="/6202FFC9" Ref="R1"  Part="1" 
F 0 "R1" V 9150 9500 50  0000 C CNN
F 1 "4.99 k" V 9250 9500 50  0000 C CNN
F 2 "kicad_pcb:R_0402_1005Metric" V 9150 9300 50  0001 C CNN
F 3 "" H 9250 9500 50  0000 C CNN
	1    9250 9500
	1    0    0    1   
$EndComp
$Comp
L power:+1V8 #PWR024
U 1 1 6203FBBD
P 9250 9250
F 0 "#PWR024" H 9250 9100 50  0001 C CNN
F 1 "+1V8" H 9265 9423 50  0000 C CNN
F 2 "" H 9250 9250 50  0001 C CNN
F 3 "" H 9250 9250 50  0001 C CNN
	1    9250 9250
	1    0    0    -1  
$EndComp
Wire Wire Line
	9250 9750 9250 9850
Connection ~ 9250 9850
Wire Wire Line
	9250 9850 9400 9850
Wire Wire Line
	1150 2450 2000 2450
Wire Wire Line
	1150 2550 2000 2550
Wire Wire Line
	1350 2350 1350 2650
Wire Wire Line
	1350 2350 2000 2350
Wire Wire Line
	1450 2650 1450 2750
Wire Wire Line
	1150 2750 1450 2750
Wire Wire Line
	1450 2650 2000 2650
Text Label 10600 6700 2    50   ~ 0
IO_B11
Wire Wire Line
	10600 6700 10300 6700
Text Label 10600 6600 2    50   ~ 0
IO_A12
Wire Wire Line
	10600 6600 10300 6600
Wire Wire Line
	10300 6800 10600 6800
Wire Wire Line
	10300 6900 10600 6900
Text Label 10600 6900 2    50   ~ 0
IO_A10
Text Label 10600 6800 2    50   ~ 0
IO_C11
Text Label 10600 7000 2    50   ~ 0
IO_B10
Text Label 10600 7100 2    50   ~ 0
IO_A9
Wire Wire Line
	10600 7100 10300 7100
Wire Wire Line
	10600 7000 10300 7000
Text Label 10600 8500 2    50   ~ 0
IO_B1
Wire Wire Line
	10600 8500 10300 8500
Wire Wire Line
	10300 7400 10600 7400
Text Label 10600 7400 2    50   ~ 0
IO_A7
Wire Wire Line
	10300 7500 10600 7500
Text Label 10600 7500 2    50   ~ 0
IO_B7
Text Label 10600 7900 2    50   ~ 0
IO_A4
Text Label 10600 7800 2    50   ~ 0
IO_B5
Wire Wire Line
	10600 7900 10300 7900
Wire Wire Line
	10600 7800 10300 7800
Text Label 10600 8000 2    50   ~ 0
IO_B4
Wire Wire Line
	10600 8000 10300 8000
Text Label 10600 8100 2    50   ~ 0
IO_A3
Wire Wire Line
	10600 8100 10300 8100
Wire Wire Line
	10600 8200 10300 8200
Wire Wire Line
	10600 8300 10300 8300
Text Label 10600 8200 2    50   ~ 0
IO_C3
Text Label 10600 8300 2    50   ~ 0
IO_A2
$Comp
L combined:ground #PWR?
U 1 1 64CD5330
P 3600 6850
AR Path="/5BE20C19/64CD5330" Ref="#PWR?"  Part="1" 
AR Path="/64CD5330" Ref="#PWR019"  Part="1" 
F 0 "#PWR019" H 3600 6850 50  0001 C CNN
F 1 "ground" H 3600 6780 50  0001 C CNN
F 2 "" H 3600 6850 50  0001 C CNN
F 3 "" H 3600 6850 50  0000 C CNN
	1    3600 6850
	-1   0    0    -1  
$EndComp
$Comp
L connector:6BPPF P?
U 1 1 64CD533A
P 3600 6650
AR Path="/5BE20C19/64CD533A" Ref="P?"  Part="1" 
AR Path="/64CD533A" Ref="P2"  Part="1" 
F 0 "P2" H 3554 6797 50  0000 C CNN
F 1 "6BPPF" H 3600 6800 50  0001 C CNN
F 2 "kicad_pcb:U.FL_Molex_MCRF_73412-0110_Vertical" H 3600 6800 50  0001 C CNN
F 3 "$PARTS/6BPPF/A-1JB.pdf" H 3600 6650 50  0001 C CNN
	1    3600 6650
	-1   0    0    -1  
$EndComp
Text Label 4050 6650 2    50   ~ 0
IO_F4
Wire Wire Line
	4050 6650 3750 6650
Text Label 14650 7200 1    50   ~ 0
LED0
Wire Wire Line
	14650 7200 14650 6950
$Comp
L ic:994T4 U1
U 1 1 5E3E4E31
P 2200 750
F 0 "U1" H 2200 800 50  0000 L CNN
F 1 "994T4" H 2650 800 50  0000 L CNN
F 2 "kicad_pcb:BGA-256_17.0x17.0mm_Layout16x16_P1.0mm_Ball0.5mm_Pad0.4mm_NSMD" H 2250 850 50  0001 C CNN
F 3 "$PARTS/994T4/ds181_Artix_7_Data_Sheet.pdf" H 2700 750 50  0001 C CNN
	1    2200 750 
	1    0    0    -1  
$EndComp
$Comp
L ic:994T4 U1
U 2 1 5E675C4C
P 3850 700
F 0 "U1" H 3850 750 50  0000 L CNN
F 1 "994T4" H 4400 750 50  0000 L CNN
F 2 "kicad_pcb:BGA-256_17.0x17.0mm_Layout16x16_P1.0mm_Ball0.5mm_Pad0.4mm_NSMD" H 3900 800 50  0001 C CNN
F 3 "$PARTS/994T4/ds181_Artix_7_Data_Sheet.pdf" H 4350 700 50  0001 C CNN
	2    3850 700 
	1    0    0    -1  
$EndComp
$Comp
L ic:994T4 U1
U 3 1 5E68477B
P 5950 700
F 0 "U1" H 5950 750 50  0000 L CNN
F 1 "994T4" H 6500 750 50  0000 L CNN
F 2 "kicad_pcb:BGA-256_17.0x17.0mm_Layout16x16_P1.0mm_Ball0.5mm_Pad0.4mm_NSMD" H 6000 800 50  0001 C CNN
F 3 "$PARTS/994T4/ds181_Artix_7_Data_Sheet.pdf" H 6450 700 50  0001 C CNN
	3    5950 700 
	1    0    0    -1  
$EndComp
$Comp
L ic:994T4 U1
U 4 1 5E688F90
P 7850 700
F 0 "U1" H 7850 750 50  0000 L CNN
F 1 "994T4" H 8300 750 50  0000 L CNN
F 2 "kicad_pcb:BGA-256_17.0x17.0mm_Layout16x16_P1.0mm_Ball0.5mm_Pad0.4mm_NSMD" H 7900 800 50  0001 C CNN
F 3 "$PARTS/994T4/ds181_Artix_7_Data_Sheet.pdf" H 8350 700 50  0001 C CNN
	4    7850 700 
	1    0    0    -1  
$EndComp
$Comp
L ic:994T4 U1
U 5 1 5E68D5E1
P 9450 700
F 0 "U1" H 9450 750 50  0000 L CNN
F 1 "994T4" H 10000 750 50  0000 L CNN
F 2 "kicad_pcb:BGA-256_17.0x17.0mm_Layout16x16_P1.0mm_Ball0.5mm_Pad0.4mm_NSMD" H 9500 800 50  0001 C CNN
F 3 "$PARTS/994T4/ds181_Artix_7_Data_Sheet.pdf" H 9950 700 50  0001 C CNN
	5    9450 700 
	1    0    0    -1  
$EndComp
$Comp
L ic:994T4 U1
U 6 1 5E692435
P 1200 3350
F 0 "U1" H 1625 3515 50  0000 C CNN
F 1 "994T4" H 1625 3424 50  0000 C CNN
F 2 "kicad_pcb:BGA-256_17.0x17.0mm_Layout16x16_P1.0mm_Ball0.5mm_Pad0.4mm_NSMD" H 1250 3450 50  0001 C CNN
F 3 "$PARTS/994T4/ds181_Artix_7_Data_Sheet.pdf" H 1700 3350 50  0001 C CNN
	6    1200 3350
	1    0    0    -1  
$EndComp
$Comp
L combined:ground #PWR?
U 1 1 5E6CC88D
P 1000 6550
AR Path="/5CDB68FA/5E6CC88D" Ref="#PWR?"  Part="1" 
AR Path="/5DFE1F9E/5E6CC88D" Ref="#PWR?"  Part="1" 
AR Path="/5E6CC88D" Ref="#PWR01"  Part="1" 
F 0 "#PWR01" H 1000 6550 50  0001 C CNN
F 1 "ground" H 1000 6480 50  0001 C CNN
F 2 "" H 1000 6550 50  0001 C CNN
F 3 "" H 1000 6550 50  0000 C CNN
	1    1000 6550
	1    0    0    -1  
$EndComp
Wire Wire Line
	1000 3450 1000 3550
Connection ~ 1000 3550
Wire Wire Line
	1000 3550 1000 3650
Connection ~ 1000 3650
Wire Wire Line
	1000 3650 1000 3750
Connection ~ 1000 3750
Wire Wire Line
	1000 3750 1000 3850
Connection ~ 1000 3850
Wire Wire Line
	1000 3850 1000 3950
Connection ~ 1000 3950
Wire Wire Line
	1000 3950 1000 4050
Connection ~ 1000 4050
Wire Wire Line
	1000 4050 1000 4150
Connection ~ 1000 4150
Wire Wire Line
	1000 4150 1000 4250
Connection ~ 1000 4250
Wire Wire Line
	1000 4250 1000 4350
Connection ~ 1000 4350
Wire Wire Line
	1000 4350 1000 4450
Connection ~ 1000 4450
Wire Wire Line
	1000 4450 1000 4550
Connection ~ 1000 4550
Wire Wire Line
	1000 4550 1000 4650
Connection ~ 1000 4650
Wire Wire Line
	1000 4650 1000 4750
Connection ~ 1000 4750
Wire Wire Line
	1000 4750 1000 4850
Connection ~ 1000 4850
Wire Wire Line
	1000 4850 1000 4950
Connection ~ 1000 4950
Wire Wire Line
	1000 4950 1000 5050
Connection ~ 1000 5050
Wire Wire Line
	1000 5050 1000 5150
Connection ~ 1000 5150
Wire Wire Line
	1000 5150 1000 5250
Connection ~ 1000 5250
Wire Wire Line
	1000 5250 1000 5350
Connection ~ 1000 5350
Wire Wire Line
	1000 5350 1000 5450
Connection ~ 1000 5450
Wire Wire Line
	1000 5450 1000 5550
Connection ~ 1000 5550
Wire Wire Line
	1000 5550 1000 5650
Connection ~ 1000 5650
Wire Wire Line
	1000 5650 1000 5750
Connection ~ 1000 5750
Wire Wire Line
	1000 5750 1000 5850
Connection ~ 1000 5850
Wire Wire Line
	1000 5850 1000 5950
Connection ~ 1000 5950
Wire Wire Line
	1000 5950 1000 6050
Connection ~ 1000 6050
Wire Wire Line
	1000 6050 1000 6150
Connection ~ 1000 6150
Wire Wire Line
	1000 6150 1000 6250
Connection ~ 1000 6250
Wire Wire Line
	1000 6250 1000 6350
Connection ~ 1000 6350
Wire Wire Line
	1000 6350 1000 6450
Connection ~ 1000 6450
Wire Wire Line
	1000 6450 1000 6550
Wire Wire Line
	2250 5050 2250 4850
Connection ~ 2250 4450
Connection ~ 2250 4550
Wire Wire Line
	2250 4550 2250 4450
Connection ~ 2250 4650
Wire Wire Line
	2250 4650 2250 4550
Connection ~ 2250 4750
Wire Wire Line
	2250 4750 2250 4650
Connection ~ 2250 4850
Wire Wire Line
	2250 4850 2250 4750
Wire Wire Line
	2250 4250 2250 4150
Connection ~ 2250 3450
Connection ~ 2250 3550
Wire Wire Line
	2250 3550 2250 3450
Connection ~ 2250 3650
Wire Wire Line
	2250 3650 2250 3550
Connection ~ 2250 3750
Wire Wire Line
	2250 3750 2250 3650
Connection ~ 2250 3850
Wire Wire Line
	2250 3850 2250 3750
Connection ~ 2250 3950
Wire Wire Line
	2250 3950 2250 3850
Connection ~ 2250 4050
Wire Wire Line
	2250 4050 2250 3950
Connection ~ 2250 4150
Wire Wire Line
	2250 4150 2250 4050
Wire Wire Line
	2250 5050 2250 5250
Connection ~ 2250 5050
Connection ~ 2250 5250
Wire Wire Line
	2250 5250 2250 5350
Connection ~ 2250 5350
Wire Wire Line
	2250 5350 2250 5450
Connection ~ 2250 5450
Wire Wire Line
	2250 5450 2250 5550
Connection ~ 2250 5550
Wire Wire Line
	2250 5550 2250 5650
Connection ~ 2250 5650
Wire Wire Line
	2250 5650 2250 5750
Connection ~ 2250 5750
Wire Wire Line
	2250 5750 2250 5950
Connection ~ 2250 5950
Wire Wire Line
	2250 5950 2250 6050
Connection ~ 2250 6050
Wire Wire Line
	2250 6050 2250 6150
Connection ~ 2250 6150
Wire Wire Line
	2250 6150 2250 6250
Connection ~ 2250 6250
Wire Wire Line
	2250 6250 2250 6350
Connection ~ 2250 6350
Wire Wire Line
	2250 6350 2250 6450
Connection ~ 2250 6450
Wire Wire Line
	2250 6450 2250 6650
Connection ~ 2250 6650
Wire Wire Line
	2250 6650 2250 6750
Connection ~ 2250 6750
Wire Wire Line
	2250 6750 2250 6850
Connection ~ 2250 6850
Wire Wire Line
	2250 6850 2250 7050
Connection ~ 2250 7050
Wire Wire Line
	2250 7050 2250 7150
Connection ~ 2250 7150
Wire Wire Line
	2250 7150 2250 7250
Connection ~ 2250 7250
Wire Wire Line
	2250 7250 2250 7350
Connection ~ 2250 7350
Wire Wire Line
	2250 7350 2250 7450
Connection ~ 2250 7450
Wire Wire Line
	2250 7450 2250 7550
Text Label 13000 8100 2    50   ~ 0
IO_M16
Text Label 5450 5300 0    50   ~ 0
IO_J15
Wire Wire Line
	5450 5300 5750 5300
Text Label 5450 5400 0    50   ~ 0
IO_J16
Wire Wire Line
	5450 5400 5750 5400
Text Label 3350 1100 0    50   ~ 0
IO_K15
Wire Wire Line
	3350 1100 3650 1100
Text Label 3350 1200 0    50   ~ 0
IO_K16
Wire Wire Line
	3350 1200 3650 1200
Text Label 3350 1500 0    50   ~ 0
IO_L14
Wire Wire Line
	3350 1500 3650 1500
Wire Wire Line
	3350 2100 3650 2100
Text Label 3350 2200 0    50   ~ 0
IO_N16
Wire Wire Line
	3350 2200 3650 2200
Text Label 3350 3100 0    50   ~ 0
IO_N14
Wire Wire Line
	3350 3100 3650 3100
Text Label 3350 2400 0    50   ~ 0
IO_P16
Wire Wire Line
	3350 2400 3650 2400
Text Label 3350 2300 0    50   ~ 0
IO_P15
Wire Wire Line
	3350 2300 3650 2300
Text Label 3350 2600 0    50   ~ 0
IO_R16
Wire Wire Line
	3350 2600 3650 2600
Text Label 3350 2100 0    50   ~ 0
IO_M16
Text Label 13000 7500 2    50   ~ 0
IO_R15
Wire Wire Line
	13000 7500 12700 7500
Text Label 13000 7400 2    50   ~ 0
IO_T15
Wire Wire Line
	13000 7400 12700 7400
Text Label 3350 2500 0    50   ~ 0
IO_R15
Wire Wire Line
	3350 2500 3650 2500
Text Label 3350 2800 0    50   ~ 0
IO_T15
Wire Wire Line
	3350 2800 3650 2800
Text Label 13000 7300 2    50   ~ 0
IO_N14
Wire Wire Line
	13000 7300 12700 7300
Text Label 3350 2700 0    50   ~ 0
IO_T14
Wire Wire Line
	3350 2700 3650 2700
Text Label 3350 3900 0    50   ~ 0
IO_R13
Wire Wire Line
	3350 3900 3650 3900
Text Label 3350 4000 0    50   ~ 0
IO_T13
Wire Wire Line
	3350 4000 3650 4000
Text Label 3350 3700 0    50   ~ 0
IO_R12
Wire Wire Line
	3350 3700 3650 3700
Text Label 3350 3800 0    50   ~ 0
IO_T12
Wire Wire Line
	3350 3800 3650 3800
Text Label 3350 4200 0    50   ~ 0
IO_R11
Wire Wire Line
	3350 4200 3650 4200
Text Label 3350 3600 0    50   ~ 0
IO_P11
Wire Wire Line
	3350 3600 3650 3600
Text Label 3350 1400 0    50   ~ 0
IO_M15
Wire Wire Line
	3350 1400 3650 1400
Text Label 13000 7900 2    50   ~ 0
IO_N16
Text Label 5450 5100 0    50   ~ 0
IO_H16
Wire Wire Line
	5450 5100 5750 5100
Text Label 5450 5600 0    50   ~ 0
IO_G15
Wire Wire Line
	5450 5600 5750 5600
Text Label 5450 5200 0    50   ~ 0
IO_G16
Wire Wire Line
	5450 5200 5750 5200
Text Label 5450 4300 0    50   ~ 0
IO_F15
Wire Wire Line
	5450 4300 5750 4300
Text Label 5450 4100 0    50   ~ 0
IO_E16
Wire Wire Line
	5450 4100 5750 4100
Text Label 5450 3100 0    50   ~ 0
IO_D13
Wire Wire Line
	5450 3100 5750 3100
Text Label 5450 4200 0    50   ~ 0
IO_D16
Wire Wire Line
	5450 4200 5750 4200
Text Label 5450 3800 0    50   ~ 0
IO_D15
Wire Wire Line
	5450 3800 5750 3800
Wire Wire Line
	5450 2700 5750 2700
Text Label 5450 2300 0    50   ~ 0
IO_C14
Wire Wire Line
	5450 2300 5750 2300
Text Label 5450 2800 0    50   ~ 0
IO_B16
Wire Wire Line
	5450 2800 5750 2800
Text Label 5450 2500 0    50   ~ 0
IO_B15
Wire Wire Line
	5450 2500 5750 2500
Text Label 5450 2600 0    50   ~ 0
IO_A15
Wire Wire Line
	5450 2600 5750 2600
Text Label 5450 2200 0    50   ~ 0
IO_A14
Wire Wire Line
	5450 2200 5750 2200
Text Label 5450 3200 0    50   ~ 0
IO_C13
Wire Wire Line
	5450 3200 5750 3200
Text Label 5450 2100 0    50   ~ 0
IO_A13
Wire Wire Line
	5450 2100 5750 2100
Text Label 5450 1700 0    50   ~ 0
IO_B12
Wire Wire Line
	5450 1700 5750 1700
Text Label 5450 2700 0    50   ~ 0
IO_C16
Wire Wire Line
	5450 2400 5750 2400
Text Label 5450 2400 0    50   ~ 0
IO_B14
Text Label 5450 4900 0    50   ~ 0
IO_G14
Wire Wire Line
	5450 4900 5750 4900
Text Label 14250 7600 2    50   ~ 0
IO_C16
Wire Wire Line
	14250 7300 13950 7300
Text Label 14250 7300 2    50   ~ 0
IO_D13
Wire Wire Line
	14250 8400 13950 8400
Text Label 14250 8400 2    50   ~ 0
IO_A13
Wire Wire Line
	14250 8300 13950 8300
Text Label 14250 8300 2    50   ~ 0
IO_C13
Wire Wire Line
	14250 8200 13950 8200
Text Label 14250 8200 2    50   ~ 0
IO_A14
Wire Wire Line
	14250 8100 13950 8100
Text Label 14250 8100 2    50   ~ 0
IO_B14
Wire Wire Line
	14250 8000 13950 8000
Text Label 14250 8000 2    50   ~ 0
IO_A15
Wire Wire Line
	14250 7900 13950 7900
Text Label 14250 7900 2    50   ~ 0
IO_B15
Wire Wire Line
	14250 7800 13950 7800
Text Label 14250 7800 2    50   ~ 0
IO_B16
Wire Wire Line
	14250 7700 13950 7700
Text Label 14250 7700 2    50   ~ 0
IO_C14
Wire Wire Line
	14250 7600 13950 7600
Wire Wire Line
	14250 7500 13950 7500
Text Label 14250 7500 2    50   ~ 0
IO_D15
Wire Wire Line
	14250 7400 13950 7400
Text Label 14250 7400 2    50   ~ 0
IO_D16
Wire Wire Line
	14250 7200 13950 7200
Text Label 14250 7200 2    50   ~ 0
IO_E16
Wire Wire Line
	14250 7100 13950 7100
Text Label 14250 7100 2    50   ~ 0
IO_F15
Wire Wire Line
	14250 8500 13950 8500
Text Label 14250 8500 2    50   ~ 0
IO_B12
Text Label 14250 7000 2    50   ~ 0
IO_G14
Wire Wire Line
	14250 7000 13950 7000
Text Label 5450 1300 0    50   ~ 0
IO_B9
Wire Wire Line
	5450 1300 5750 1300
Text Label 5450 1600 0    50   ~ 0
IO_B11
Wire Wire Line
	5450 1600 5750 1600
Text Label 5450 1800 0    50   ~ 0
IO_A12
Wire Wire Line
	5450 1800 5750 1800
Wire Wire Line
	5750 2900 5450 2900
Wire Wire Line
	5750 1400 5450 1400
Text Label 5450 1400 0    50   ~ 0
IO_A10
Text Label 5450 2900 0    50   ~ 0
IO_C11
Text Label 5450 1500 0    50   ~ 0
IO_B10
Text Label 5450 1200 0    50   ~ 0
IO_A9
Wire Wire Line
	5450 1200 5750 1200
Wire Wire Line
	5450 1500 5750 1500
Text Label 3350 3500 0    50   ~ 0
IO_P10
Wire Wire Line
	3350 3500 3650 3500
Text Label 11850 7300 2    50   ~ 0
IO_P10
Wire Wire Line
	11850 7300 11550 7300
Text Label 3350 1600 0    50   ~ 0
IO_M14
Wire Wire Line
	3350 1600 3650 1600
$Comp
L combined:ground #PWR?
U 1 1 612EC816
P 3650 1300
AR Path="/5BE20C19/612EC816" Ref="#PWR?"  Part="1" 
AR Path="/612EC816" Ref="#PWR021"  Part="1" 
F 0 "#PWR021" H 3650 1300 50  0001 C CNN
F 1 "ground" H 3650 1230 50  0001 C CNN
F 2 "" H 3650 1300 50  0001 C CNN
F 3 "" H 3650 1300 50  0000 C CNN
	1    3650 1300
	0    1    -1   0   
$EndComp
Wire Wire Line
	8950 5200 9250 5200
Text Label 8950 5200 0    50   ~ 0
ETXEN
$Comp
L combined:ground #PWR?
U 1 1 618E0130
P 1200 2900
AR Path="/5BE20C19/618E0130" Ref="#PWR?"  Part="1" 
AR Path="/618E0130" Ref="#PWR03"  Part="1" 
F 0 "#PWR03" H 1200 2900 50  0001 C CNN
F 1 "ground" H 1200 2830 50  0001 C CNN
F 2 "" H 1200 2900 50  0001 C CNN
F 3 "" H 1200 2900 50  0000 C CNN
	1    1200 2900
	-1   0    0    -1  
$EndComp
Text Label 3350 5400 0    50   ~ 0
IO_T5
Wire Wire Line
	3350 5400 3650 5400
Text Label 3350 5500 0    50   ~ 0
IO_R6
Wire Wire Line
	3350 5500 3650 5500
Text Label 3350 5600 0    50   ~ 0
IO_R7
Wire Wire Line
	3350 5600 3650 5600
Text Label 3350 4900 0    50   ~ 0
IO_T7
Wire Wire Line
	3350 4900 3650 4900
Wire Wire Line
	3350 5100 3650 5100
Text Label 3350 4400 0    50   ~ 0
IO_P9
Wire Wire Line
	3350 4400 3650 4400
Text Label 3350 5100 0    50   ~ 0
IO_T9
Wire Wire Line
	3350 5000 3650 5000
Text Label 3350 4800 0    50   ~ 0
IO_R8
Wire Wire Line
	3350 4800 3650 4800
Text Label 3350 5000 0    50   ~ 0
IO_T8
Wire Wire Line
	3350 4100 3650 4100
Text Label 3350 4100 0    50   ~ 0
IO_R10
Wire Wire Line
	3350 5200 3650 5200
Text Label 3350 5200 0    50   ~ 0
IO_T10
Wire Wire Line
	7350 2500 7650 2500
Wire Wire Line
	3350 5300 3650 5300
Text Label 7350 2500 0    50   ~ 0
IO_T4
Text Label 3350 5300 0    50   ~ 0
IO_R5
Wire Wire Line
	7350 2100 7650 2100
Wire Wire Line
	7350 2400 7650 2400
Text Label 7350 2100 0    50   ~ 0
IO_R2
Text Label 7350 2400 0    50   ~ 0
IO_T2
Wire Wire Line
	7350 2300 7650 2300
Wire Wire Line
	7350 2600 7650 2600
Text Label 7350 2300 0    50   ~ 0
IO_R3
Text Label 7350 2600 0    50   ~ 0
IO_T3
Wire Wire Line
	7350 1800 7650 1800
Wire Wire Line
	7350 2200 7650 2200
Text Label 7350 1800 0    50   ~ 0
IO_P3
Text Label 7350 2200 0    50   ~ 0
IO_R1
Text Label 8950 3300 0    50   ~ 0
IO_F5
Wire Wire Line
	8950 3300 9250 3300
Text Label 10600 7300 2    50   ~ 0
IO_F5
Wire Wire Line
	10600 7300 10300 7300
Wire Wire Line
	8950 1100 9250 1100
Wire Wire Line
	8950 1300 9250 1300
Text Label 8950 1100 0    50   ~ 0
IO_B6
Text Label 8950 1300 0    50   ~ 0
IO_A5
Wire Wire Line
	9250 1000 8950 1000
Text Label 8950 1000 0    50   ~ 0
IO_A7
Wire Wire Line
	9250 900  8950 900 
Text Label 8950 900  0    50   ~ 0
IO_B7
Text Label 8950 1400 0    50   ~ 0
IO_A4
Text Label 8950 1200 0    50   ~ 0
IO_B5
Wire Wire Line
	8950 1400 9250 1400
Wire Wire Line
	8950 1200 9250 1200
Text Label 8950 1500 0    50   ~ 0
IO_B4
Wire Wire Line
	8950 1500 9250 1500
Text Label 8950 1600 0    50   ~ 0
IO_A3
Wire Wire Line
	8950 1600 9250 1600
Wire Wire Line
	8950 2100 9250 2100
Wire Wire Line
	8950 2400 9250 2400
Text Label 8950 2100 0    50   ~ 0
IO_C3
Text Label 8950 2400 0    50   ~ 0
IO_A2
Text Label 8950 2300 0    50   ~ 0
IO_B2
Wire Wire Line
	8950 2300 9250 2300
Text Label 8950 2600 0    50   ~ 0
IO_B1
Wire Wire Line
	8950 2600 9250 2600
$Comp
L power:+3.3V #PWR035
U 1 1 62950552
P 14650 6150
F 0 "#PWR035" H 14650 6000 50  0001 C CNN
F 1 "+3.3V" H 14665 6323 50  0000 C CNN
F 2 "" H 14650 6150 50  0001 C CNN
F 3 "" H 14650 6150 50  0001 C CNN
	1    14650 6150
	1    0    0    -1  
$EndComp
Text Label 7350 1600 0    50   ~ 0
IO_P1
Wire Wire Line
	7350 1600 7650 1600
Text Label 11850 6600 2    50   ~ 0
IO_P1
Wire Wire Line
	11850 6600 11550 6600
Text Label 8950 3500 0    50   ~ 0
IO_F4
Wire Wire Line
	8950 3500 9250 3500
NoConn ~ 3650 1700
NoConn ~ 3650 1800
NoConn ~ 3650 800 
NoConn ~ 3650 2000
NoConn ~ 3650 2900
NoConn ~ 3650 3000
NoConn ~ 3650 3200
NoConn ~ 3650 3300
NoConn ~ 3650 3400
NoConn ~ 3650 4300
NoConn ~ 3650 4500
NoConn ~ 3650 4600
NoConn ~ 3650 4700
NoConn ~ 3650 5700
$Comp
L Oscillator:ECS-2520MV-xxx-xx X1
U 1 1 630D59A3
P 5000 8650
F 0 "X1" H 4700 8900 50  0000 L CNN
F 1 " ECS-5032MV-1250-CN-TR" H 5100 8900 50  0000 L CNN
F 2 "Oscillator:Oscillator_SMD_SeikoEpson_SG8002LB-4Pin_5.0x3.2mm" H 5450 8300 50  0001 C CNN
F 3 "https://www.ecsxtal.com/store/pdf/ECS-2520MV.pdf" H 4825 8775 50  0001 C CNN
	1    5000 8650
	1    0    0    -1  
$EndComp
$Comp
L combined:ground #PWR?
U 1 1 631063CE
P 5000 8950
AR Path="/5BE20C19/631063CE" Ref="#PWR?"  Part="1" 
AR Path="/631063CE" Ref="#PWR023"  Part="1" 
F 0 "#PWR023" H 5000 8950 50  0001 C CNN
F 1 "ground" H 5000 8880 50  0001 C CNN
F 2 "" H 5000 8950 50  0001 C CNN
F 3 "" H 5000 8950 50  0000 C CNN
	1    5000 8950
	-1   0    0    -1  
$EndComp
$Comp
L power:+1V8 #PWR022
U 1 1 63107344
P 5000 8350
F 0 "#PWR022" H 5000 8200 50  0001 C CNN
F 1 "+1V8" V 5015 8478 50  0000 L CNN
F 2 "" H 5000 8350 50  0001 C CNN
F 3 "" H 5000 8350 50  0001 C CNN
	1    5000 8350
	-1   0    0    -1  
$EndComp
NoConn ~ 4600 8650
Text Label 5700 8650 2    50   ~ 0
CLK125
Wire Wire Line
	5700 8650 5400 8650
Text Label 8950 3100 0    50   ~ 0
CLK125
Wire Wire Line
	8950 3100 9250 3100
$Comp
L combined:ground #PWR?
U 1 1 5E4367F1
P 2000 2150
AR Path="/5BE20C19/5E4367F1" Ref="#PWR?"  Part="1" 
AR Path="/5E4367F1" Ref="#PWR0101"  Part="1" 
F 0 "#PWR0101" H 2000 2150 50  0001 C CNN
F 1 "ground" H 2000 2080 50  0001 C CNN
F 2 "" H 2000 2150 50  0001 C CNN
F 3 "" H 2000 2150 50  0000 C CNN
	1    2000 2150
	0    1    -1   0   
$EndComp
$Comp
L power:+1V8 #PWR0102
U 1 1 5E439110
P 2000 2050
F 0 "#PWR0102" H 2000 1900 50  0001 C CNN
F 1 "+1V8" V 2015 2178 50  0000 L CNN
F 2 "" H 2000 2050 50  0001 C CNN
F 3 "" H 2000 2050 50  0001 C CNN
	1    2000 2050
	0    -1   1    0   
$EndComp
Text Label 1700 1850 0    50   ~ 0
PROG_B
Text Label 1700 1950 0    50   ~ 0
INIT_B
Wire Wire Line
	2000 1850 1200 1850
Wire Wire Line
	1150 1950 1400 1950
$Comp
L resistor:resistor_0402 R?
U 1 1 5E53B04D
P 1200 1550
AR Path="/5C2CDB08/5E53B04D" Ref="R?"  Part="1" 
AR Path="/5E374CB3/5E53B04D" Ref="R?"  Part="1" 
AR Path="/5E53B04D" Ref="R20"  Part="1" 
F 0 "R20" V 1100 1550 50  0000 C CNN
F 1 "3.32 k" V 1200 1550 50  0000 C CNN
F 2 "kicad_pcb:R_0402_1005Metric" V 1100 1350 50  0001 C CNN
F 3 "" H 1200 1550 50  0000 C CNN
	1    1200 1550
	1    0    0    -1  
$EndComp
$Comp
L resistor:resistor_0402 R?
U 1 1 5E577574
P 1400 1550
AR Path="/5C2CDB08/5E577574" Ref="R?"  Part="1" 
AR Path="/5E374CB3/5E577574" Ref="R?"  Part="1" 
AR Path="/5E577574" Ref="R21"  Part="1" 
F 0 "R21" V 1300 1550 50  0000 C CNN
F 1 "3.32 k" V 1400 1550 50  0000 C CNN
F 2 "kicad_pcb:R_0402_1005Metric" V 1300 1350 50  0001 C CNN
F 3 "" H 1400 1550 50  0000 C CNN
	1    1400 1550
	1    0    0    -1  
$EndComp
Wire Wire Line
	1200 1800 1200 1850
Connection ~ 1200 1850
Wire Wire Line
	1200 1850 1150 1850
Wire Wire Line
	1400 1800 1400 1950
Connection ~ 1400 1950
Wire Wire Line
	1400 1950 2000 1950
$Comp
L power:+1V8 #PWR0103
U 1 1 5E630533
P 1400 1300
F 0 "#PWR0103" H 1400 1150 50  0001 C CNN
F 1 "+1V8" V 1415 1428 50  0000 L CNN
F 2 "" H 1400 1300 50  0001 C CNN
F 3 "" H 1400 1300 50  0001 C CNN
	1    1400 1300
	-1   0    0    -1  
$EndComp
$Comp
L power:+1V8 #PWR0104
U 1 1 5E630E23
P 1200 1300
F 0 "#PWR0104" H 1200 1150 50  0001 C CNN
F 1 "+1V8" V 1215 1428 50  0000 L CNN
F 2 "" H 1200 1300 50  0001 C CNN
F 3 "" H 1200 1300 50  0001 C CNN
	1    1200 1300
	-1   0    0    -1  
$EndComp
Wire Wire Line
	2000 1650 1650 1650
Wire Wire Line
	1650 1650 1650 1600
Text Label 1700 1650 0    50   ~ 0
DONE
NoConn ~ 5750 800 
NoConn ~ 5750 1000
NoConn ~ 5750 1900
NoConn ~ 5750 2000
NoConn ~ 5750 3000
NoConn ~ 5750 3300
NoConn ~ 5750 3400
NoConn ~ 5750 3500
NoConn ~ 5750 3600
NoConn ~ 5750 3700
NoConn ~ 5750 3900
NoConn ~ 5750 4000
NoConn ~ 5750 4400
NoConn ~ 5750 4500
NoConn ~ 5750 4600
NoConn ~ 5750 4700
NoConn ~ 5750 4800
NoConn ~ 5750 5000
NoConn ~ 5750 5500
NoConn ~ 5750 5700
NoConn ~ 7650 2700
NoConn ~ 7650 2000
NoConn ~ 7650 1900
NoConn ~ 7650 1400
NoConn ~ 7650 1300
NoConn ~ 7650 1200
NoConn ~ 7650 1100
NoConn ~ 7650 1000
NoConn ~ 7650 900 
NoConn ~ 7650 800 
NoConn ~ 5750 900 
NoConn ~ 5750 1100
NoConn ~ 7650 1700
NoConn ~ 9250 800 
NoConn ~ 9250 1700
NoConn ~ 9250 1800
NoConn ~ 9250 1900
NoConn ~ 9250 2000
NoConn ~ 9250 2200
NoConn ~ 9250 3000
NoConn ~ 9250 3200
NoConn ~ 9250 3400
NoConn ~ 9250 3600
NoConn ~ 9250 3700
NoConn ~ 9250 3900
NoConn ~ 9250 4000
NoConn ~ 9250 4300
NoConn ~ 9250 4400
NoConn ~ 9250 4500
NoConn ~ 9250 4600
NoConn ~ 9250 5000
NoConn ~ 9250 5700
$EndSCHEMATC
