EESchema Schematic File Version 4
EELAYER 30 0
EELAYER END
$Descr USLetter 11000 8500
encoding utf-8
Sheet 2 3
Title "Artix 7 Ethernet Acquistion Board"
Date "2020-02-05"
Rev "1"
Comp "Harmon Instruments"
Comment1 ""
Comment2 ""
Comment3 ""
Comment4 ""
$EndDescr
$Comp
L combined:ground #PWR042
U 1 1 5C2E3385
P 6200 5050
AR Path="/5C2CDB08/5C2E3385" Ref="#PWR042"  Part="1" 
AR Path="/5E374CB3/5C2E3385" Ref="#PWR?"  Part="1" 
F 0 "#PWR042" H 6200 5050 50  0001 C CNN
F 1 "ground" H 6200 4980 50  0001 C CNN
F 2 "" H 6200 5050 50  0001 C CNN
F 3 "" H 6200 5050 50  0000 C CNN
	1    6200 5050
	1    0    0    -1  
$EndComp
Wire Wire Line
	7800 4600 7800 4550
Wire Wire Line
	9600 5600 9600 5650
$Comp
L power:PWR_FLAG #FLG04
U 1 1 5C492F98
P 6700 1300
AR Path="/5C2CDB08/5C492F98" Ref="#FLG04"  Part="1" 
AR Path="/5E374CB3/5C492F98" Ref="#FLG?"  Part="1" 
F 0 "#FLG04" H 6700 1375 50  0001 C CNN
F 1 "PWR_FLAG" V 6700 1600 50  0000 C CNN
F 2 "" H 6700 1300 50  0001 C CNN
F 3 "~" H 6700 1300 50  0001 C CNN
	1    6700 1300
	1    0    0    -1  
$EndComp
$Comp
L power:PWR_FLAG #FLG01
U 1 1 5C4947CD
P 2550 2000
AR Path="/5C2CDB08/5C4947CD" Ref="#FLG01"  Part="1" 
AR Path="/5E374CB3/5C4947CD" Ref="#FLG?"  Part="1" 
F 0 "#FLG01" H 2550 2075 50  0001 C CNN
F 1 "PWR_FLAG" V 2550 2300 50  0000 C CNN
F 2 "" H 2550 2000 50  0001 C CNN
F 3 "~" H 2550 2000 50  0001 C CNN
	1    2550 2000
	1    0    0    -1  
$EndComp
$Comp
L combined:ground #PWR036
U 1 1 5C494850
P 2550 2000
AR Path="/5C2CDB08/5C494850" Ref="#PWR036"  Part="1" 
AR Path="/5E374CB3/5C494850" Ref="#PWR?"  Part="1" 
F 0 "#PWR036" H 2550 2000 50  0001 C CNN
F 1 "ground" H 2550 1930 50  0001 C CNN
F 2 "" H 2550 2000 50  0001 C CNN
F 3 "" H 2550 2000 50  0000 C CNN
	1    2550 2000
	1    0    0    -1  
$EndComp
$Comp
L combined:ground #PWR067
U 1 1 5BC5FED4
P 9600 6100
AR Path="/5C2CDB08/5BC5FED4" Ref="#PWR067"  Part="1" 
AR Path="/5E374CB3/5BC5FED4" Ref="#PWR?"  Part="1" 
F 0 "#PWR067" H 9600 6100 50  0001 C CNN
F 1 "ground" H 9600 6030 50  0001 C CNN
F 2 "" H 9600 6100 50  0001 C CNN
F 3 "" H 9600 6100 50  0000 C CNN
	1    9600 6100
	1    0    0    -1  
$EndComp
Wire Wire Line
	9600 6050 9600 6100
$Comp
L resistor:resistor_0402 R4
U 1 1 5D04A2B2
P 5650 4800
AR Path="/5C2CDB08/5D04A2B2" Ref="R4"  Part="1" 
AR Path="/5E374CB3/5D04A2B2" Ref="R?"  Part="1" 
F 0 "R4" V 5550 4800 50  0000 C CNN
F 1 "10 k" V 5650 4800 50  0000 C CNN
F 2 "kicad_pcb:R_0402_1005Metric" V 5550 4600 50  0001 C CNN
F 3 "" H 5650 4800 50  0000 C CNN
	1    5650 4800
	0    1    1    0   
$EndComp
$Comp
L combined:ground #PWR039
U 1 1 5D04A2C6
P 4450 4800
AR Path="/5C2CDB08/5D04A2C6" Ref="#PWR039"  Part="1" 
AR Path="/5E374CB3/5D04A2C6" Ref="#PWR?"  Part="1" 
F 0 "#PWR039" H 4450 4800 50  0001 C CNN
F 1 "ground" H 4450 4730 50  0001 C CNN
F 2 "" H 4450 4800 50  0001 C CNN
F 3 "" H 4450 4800 50  0000 C CNN
	1    4450 4800
	0    1    1    0   
$EndComp
$Comp
L capacitors:capacitor_0805 C1
U 1 1 5D04A2D1
P 4000 4800
AR Path="/5C2CDB08/5D04A2D1" Ref="C1"  Part="1" 
AR Path="/5E374CB3/5D04A2D1" Ref="C?"  Part="1" 
F 0 "C1" V 3850 4800 50  0000 C CNN
F 1 "10 uF" V 4150 4800 50  0000 C CNN
F 2 "kicad_pcb:C_0805_2012Metric" H 4150 4700 50  0001 L CNN
F 3 "" H 4000 4800 50  0000 C CNN
	1    4000 4800
	1    0    0    -1  
$EndComp
$Comp
L combined:ground #PWR037
U 1 1 5D04A2DB
P 4000 5000
AR Path="/5C2CDB08/5D04A2DB" Ref="#PWR037"  Part="1" 
AR Path="/5E374CB3/5D04A2DB" Ref="#PWR?"  Part="1" 
F 0 "#PWR037" H 4000 5000 50  0001 C CNN
F 1 "ground" H 4000 4930 50  0001 C CNN
F 2 "" H 4000 5000 50  0001 C CNN
F 3 "" H 4000 5000 50  0000 C CNN
	1    4000 5000
	1    0    0    -1  
$EndComp
Connection ~ 4000 4600
Wire Wire Line
	4000 4600 4450 4600
$Comp
L inductor:YPDMG L1
U 1 1 5D04A2E8
P 5600 4600
AR Path="/5C2CDB08/5D04A2E8" Ref="L1"  Part="1" 
AR Path="/5E374CB3/5D04A2E8" Ref="L?"  Part="1" 
F 0 "L1" H 5600 4800 50  0000 C CNN
F 1 "PH4BD" H 5600 4700 50  0000 C CNN
F 2 "kicad_pcb:L_Bourns-SRN4018" H 5350 4700 50  0001 C CNN
F 3 "" H 5600 4600 50  0001 L BNN
	1    5600 4600
	1    0    0    -1  
$EndComp
Wire Wire Line
	5950 4800 5950 4600
Connection ~ 5950 4600
Wire Wire Line
	5950 4600 5900 4600
Wire Wire Line
	5950 4800 5900 4800
Wire Wire Line
	5400 4800 5350 4800
$Comp
L resistor:resistor_0402 R3
U 1 1 5D04A2F7
P 5350 5100
AR Path="/5C2CDB08/5D04A2F7" Ref="R3"  Part="1" 
AR Path="/5E374CB3/5D04A2F7" Ref="R?"  Part="1" 
F 0 "R3" V 5250 5100 50  0000 C CNN
F 1 "4.99 k" V 5350 5100 50  0000 C CNN
F 2 "kicad_pcb:R_0402_1005Metric" V 5250 4900 50  0001 C CNN
F 3 "" H 5350 5100 50  0000 C CNN
	1    5350 5100
	1    0    0    -1  
$EndComp
$Comp
L combined:ground #PWR041
U 1 1 5D04A301
P 5350 5350
AR Path="/5C2CDB08/5D04A301" Ref="#PWR041"  Part="1" 
AR Path="/5E374CB3/5D04A301" Ref="#PWR?"  Part="1" 
F 0 "#PWR041" H 5350 5350 50  0001 C CNN
F 1 "ground" H 5350 5280 50  0001 C CNN
F 2 "" H 5350 5350 50  0001 C CNN
F 3 "" H 5350 5350 50  0000 C CNN
	1    5350 5350
	1    0    0    -1  
$EndComp
Wire Wire Line
	5350 4850 5350 4800
Connection ~ 5350 4800
Wire Wire Line
	5350 4800 5300 4800
Text Label 5300 4800 0    50   ~ 0
FB18
Text Label 5300 4600 0    50   ~ 0
SW18
Wire Wire Line
	5950 4600 6100 4600
$Comp
L capacitors:capacitor_0805 C2
U 1 1 5D0CE8E5
P 6200 4800
AR Path="/5C2CDB08/5D0CE8E5" Ref="C2"  Part="1" 
AR Path="/5E374CB3/5D0CE8E5" Ref="C?"  Part="1" 
F 0 "C2" V 6050 4800 50  0000 C CNN
F 1 "10 uF" V 6350 4800 50  0000 C CNN
F 2 "kicad_pcb:C_0805_2012Metric" H 6350 4700 50  0001 L CNN
F 3 "" H 6200 4800 50  0000 C CNN
	1    6200 4800
	1    0    0    -1  
$EndComp
$Comp
L capacitors:capacitor_0805 C5
U 1 1 5D0CE8EF
P 6600 4800
AR Path="/5C2CDB08/5D0CE8EF" Ref="C5"  Part="1" 
AR Path="/5E374CB3/5D0CE8EF" Ref="C?"  Part="1" 
F 0 "C5" V 6450 4800 50  0000 C CNN
F 1 "10 uF" V 6750 4800 50  0000 C CNN
F 2 "kicad_pcb:C_0805_2012Metric" H 6750 4700 50  0001 L CNN
F 3 "" H 6600 4800 50  0000 C CNN
	1    6600 4800
	1    0    0    -1  
$EndComp
Connection ~ 6200 4600
Connection ~ 6600 4600
Wire Wire Line
	6200 4600 6600 4600
Wire Wire Line
	6200 5000 6200 5050
Connection ~ 6200 5000
Connection ~ 6600 5000
Wire Wire Line
	6600 5000 6200 5000
$Comp
L capacitors:capacitor_0402 C32
U 1 1 5D2FEE75
P 9200 5850
AR Path="/5C2CDB08/5D2FEE75" Ref="C32"  Part="1" 
AR Path="/5E374CB3/5D2FEE75" Ref="C?"  Part="1" 
F 0 "C32" V 9050 5850 50  0000 C CNN
F 1 "1 uF" V 9350 5850 50  0000 C CNN
F 2 "kicad_pcb:C_0402_1005Metric" H 9350 5750 50  0001 L CNN
F 3 "" H 9200 5850 50  0000 C CNN
	1    9200 5850
	1    0    0    -1  
$EndComp
$Comp
L capacitors:capacitor_0402 C33
U 1 1 5D2FEE87
P 9600 5850
AR Path="/5C2CDB08/5D2FEE87" Ref="C33"  Part="1" 
AR Path="/5E374CB3/5D2FEE87" Ref="C?"  Part="1" 
F 0 "C33" V 9450 5850 50  0000 C CNN
F 1 "1 uF" V 9750 5850 50  0000 C CNN
F 2 "kicad_pcb:C_0402_1005Metric" H 9750 5750 50  0001 L CNN
F 3 "" H 9600 5850 50  0000 C CNN
	1    9600 5850
	1    0    0    -1  
$EndComp
Connection ~ 9200 5650
Wire Wire Line
	9200 5650 9600 5650
Wire Wire Line
	9200 6050 9600 6050
Connection ~ 9600 5650
Connection ~ 9600 6050
$Comp
L power:PWR_FLAG #FLG03
U 1 1 5D4B2099
P 6100 4600
AR Path="/5C2CDB08/5D4B2099" Ref="#FLG03"  Part="1" 
AR Path="/5E374CB3/5D4B2099" Ref="#FLG?"  Part="1" 
F 0 "#FLG03" H 6100 4675 50  0001 C CNN
F 1 "PWR_FLAG" V 6100 4900 50  0000 C CNN
F 2 "" H 6100 4600 50  0001 C CNN
F 3 "~" H 6100 4600 50  0001 C CNN
	1    6100 4600
	1    0    0    -1  
$EndComp
Connection ~ 6100 4600
Wire Wire Line
	6100 4600 6200 4600
Wire Wire Line
	6600 4600 7000 4600
Wire Wire Line
	6600 5000 7000 5000
$Comp
L capacitors:capacitor_0805 C7
U 1 1 5F265CC7
P 7000 4800
AR Path="/5C2CDB08/5F265CC7" Ref="C7"  Part="1" 
AR Path="/5E374CB3/5F265CC7" Ref="C?"  Part="1" 
F 0 "C7" V 6850 4800 50  0000 C CNN
F 1 "10 uF" V 7150 4800 50  0000 C CNN
F 2 "kicad_pcb:C_0805_2012Metric" H 7150 4700 50  0001 L CNN
F 3 "" H 7000 4800 50  0000 C CNN
	1    7000 4800
	1    0    0    -1  
$EndComp
Connection ~ 7000 4600
Connection ~ 7000 5000
Wire Wire Line
	7000 4600 7400 4600
Wire Wire Line
	7000 5000 7400 5000
$Comp
L capacitors:capacitor_0805 C8
U 1 1 5F26D229
P 7400 4800
AR Path="/5C2CDB08/5F26D229" Ref="C8"  Part="1" 
AR Path="/5E374CB3/5F26D229" Ref="C?"  Part="1" 
F 0 "C8" V 7250 4800 50  0000 C CNN
F 1 "10 uF" V 7550 4800 50  0000 C CNN
F 2 "kicad_pcb:C_0805_2012Metric" H 7550 4700 50  0001 L CNN
F 3 "" H 7400 4800 50  0000 C CNN
	1    7400 4800
	1    0    0    -1  
$EndComp
Connection ~ 7400 4600
Wire Wire Line
	7400 4600 7800 4600
Connection ~ 7400 5000
Wire Wire Line
	7400 5000 7800 5000
Wire Wire Line
	4450 1300 4450 1400
Connection ~ 4450 1300
Text Label 3800 1300 0    50   ~ 0
VIN
Wire Wire Line
	5650 1300 5300 1300
Text Label 5350 1300 0    50   ~ 0
SW1
Wire Wire Line
	6300 1300 6250 1300
Wire Wire Line
	9000 1250 9000 1300
Connection ~ 6300 1300
$Comp
L resistor:resistor_0402 R8
U 1 1 5FB14D5D
P 5450 1750
AR Path="/5C2CDB08/5FB14D5D" Ref="R8"  Part="1" 
AR Path="/5E374CB3/5FB14D5D" Ref="R?"  Part="1" 
F 0 "R8" V 5350 1750 50  0000 C CNN
F 1 "4.99 k" V 5450 1750 50  0000 C CNN
F 2 "kicad_pcb:R_0402_1005Metric" V 5350 1550 50  0001 C CNN
F 3 "" H 5450 1750 50  0000 C CNN
	1    5450 1750
	1    0    0    -1  
$EndComp
$Comp
L resistor:resistor_0402 R9
U 1 1 5FB1532F
P 5950 1500
AR Path="/5C2CDB08/5FB1532F" Ref="R9"  Part="1" 
AR Path="/5E374CB3/5FB1532F" Ref="R?"  Part="1" 
F 0 "R9" V 5850 1500 50  0000 C CNN
F 1 "3.32 k" V 5950 1500 50  0000 C CNN
F 2 "kicad_pcb:R_0402_1005Metric" V 5850 1300 50  0001 C CNN
F 3 "" H 5950 1500 50  0000 C CNN
	1    5950 1500
	0    1    1    0   
$EndComp
Wire Wire Line
	6200 1500 6300 1500
Connection ~ 5450 1500
$Comp
L combined:ground #PWR052
U 1 1 5FB1DF79
P 5450 2000
AR Path="/5C2CDB08/5FB1DF79" Ref="#PWR052"  Part="1" 
AR Path="/5E374CB3/5FB1DF79" Ref="#PWR?"  Part="1" 
F 0 "#PWR052" H 5450 2000 50  0001 C CNN
F 1 "ground" H 5450 1930 50  0001 C CNN
F 2 "" H 5450 2000 50  0001 C CNN
F 3 "" H 5450 2000 50  0000 C CNN
	1    5450 2000
	1    0    0    -1  
$EndComp
Text Label 5350 1500 0    50   ~ 0
FB1
$Comp
L power:+1V0 #PWR064
U 1 1 5FB20D4D
P 9000 1250
AR Path="/5C2CDB08/5FB20D4D" Ref="#PWR064"  Part="1" 
AR Path="/5E374CB3/5FB20D4D" Ref="#PWR?"  Part="1" 
F 0 "#PWR064" H 9000 1100 50  0001 C CNN
F 1 "+1V0" H 9015 1423 50  0000 C CNN
F 2 "" H 9000 1250 50  0001 C CNN
F 3 "" H 9000 1250 50  0001 C CNN
	1    9000 1250
	1    0    0    -1  
$EndComp
$Comp
L combined:ground #PWR065
U 1 1 5FB24D41
P 9000 1750
AR Path="/5C2CDB08/5FB24D41" Ref="#PWR065"  Part="1" 
AR Path="/5E374CB3/5FB24D41" Ref="#PWR?"  Part="1" 
F 0 "#PWR065" H 9000 1750 50  0001 C CNN
F 1 "ground" H 9000 1680 50  0001 C CNN
F 2 "" H 9000 1750 50  0001 C CNN
F 3 "" H 9000 1750 50  0000 C CNN
	1    9000 1750
	1    0    0    -1  
$EndComp
Text Notes 5750 1500 2    50   ~ 0
0.6 V
Connection ~ 6700 1300
$Comp
L power:+3V8 #PWR?
U 1 1 5F0FA583
P 7750 5600
AR Path="/5F0FA583" Ref="#PWR?"  Part="1" 
AR Path="/5C2CDB08/5F0FA583" Ref="#PWR060"  Part="1" 
F 0 "#PWR060" H 7750 5450 50  0001 C CNN
F 1 "+3V8" H 7765 5773 50  0000 C CNN
F 2 "" H 7750 5600 50  0001 C CNN
F 3 "" H 7750 5600 50  0001 C CNN
	1    7750 5600
	1    0    0    -1  
$EndComp
Wire Wire Line
	7750 5600 7750 5650
Wire Wire Line
	7800 5650 7750 5650
$Comp
L combined:ground #PWR062
U 1 1 5F1278CD
P 8200 6050
AR Path="/5C2CDB08/5F1278CD" Ref="#PWR062"  Part="1" 
AR Path="/5E374CB3/5F1278CD" Ref="#PWR?"  Part="1" 
F 0 "#PWR062" H 8200 6050 50  0001 C CNN
F 1 "ground" H 8200 5980 50  0001 C CNN
F 2 "" H 8200 6050 50  0001 C CNN
F 3 "" H 8200 6050 50  0000 C CNN
	1    8200 6050
	1    0    0    -1  
$EndComp
$Comp
L power:PWR_FLAG #FLG05
U 1 1 5F1E51E7
P 6700 2350
AR Path="/5C2CDB08/5F1E51E7" Ref="#FLG05"  Part="1" 
AR Path="/5E374CB3/5F1E51E7" Ref="#FLG?"  Part="1" 
F 0 "#FLG05" H 6700 2425 50  0001 C CNN
F 1 "PWR_FLAG" V 6700 2650 50  0000 C CNN
F 2 "" H 6700 2350 50  0001 C CNN
F 3 "~" H 6700 2350 50  0001 C CNN
	1    6700 2350
	1    0    0    -1  
$EndComp
Wire Wire Line
	5650 2350 5300 2350
Text Label 5350 2350 0    50   ~ 0
SW3
Wire Wire Line
	6300 2350 6250 2350
Connection ~ 6300 2350
$Comp
L resistor:resistor_0402 R7
U 1 1 5F1E527C
P 5400 2800
AR Path="/5C2CDB08/5F1E527C" Ref="R7"  Part="1" 
AR Path="/5E374CB3/5F1E527C" Ref="R?"  Part="1" 
F 0 "R7" V 5300 2800 50  0000 C CNN
F 1 "10 k" V 5400 2800 50  0000 C CNN
F 2 "kicad_pcb:R_0402_1005Metric" V 5300 2600 50  0001 C CNN
F 3 "" H 5400 2800 50  0000 C CNN
	1    5400 2800
	1    0    0    -1  
$EndComp
$Comp
L resistor:resistor_0402 R10
U 1 1 5F1E5286
P 5950 2550
AR Path="/5C2CDB08/5F1E5286" Ref="R10"  Part="1" 
AR Path="/5E374CB3/5F1E5286" Ref="R?"  Part="1" 
F 0 "R10" V 5850 2550 50  0000 C CNN
F 1 "51 k" V 5950 2550 50  0000 C CNN
F 2 "kicad_pcb:R_0402_1005Metric" V 5850 2350 50  0001 C CNN
F 3 "" H 5950 2550 50  0000 C CNN
	1    5950 2550
	0    1    1    0   
$EndComp
Wire Wire Line
	6200 2550 6300 2550
Wire Wire Line
	5700 2550 5650 2550
Connection ~ 5400 2550
Wire Wire Line
	5400 2550 5300 2550
$Comp
L combined:ground #PWR051
U 1 1 5F1E5296
P 5400 3050
AR Path="/5C2CDB08/5F1E5296" Ref="#PWR051"  Part="1" 
AR Path="/5E374CB3/5F1E5296" Ref="#PWR?"  Part="1" 
F 0 "#PWR051" H 5400 3050 50  0001 C CNN
F 1 "ground" H 5400 2980 50  0001 C CNN
F 2 "" H 5400 3050 50  0001 C CNN
F 3 "" H 5400 3050 50  0000 C CNN
	1    5400 3050
	1    0    0    -1  
$EndComp
Text Label 5300 2550 0    50   ~ 0
FB3
$Comp
L combined:ground #PWR055
U 1 1 5F1E52B5
P 6600 2750
AR Path="/5C2CDB08/5F1E52B5" Ref="#PWR055"  Part="1" 
AR Path="/5E374CB3/5F1E52B5" Ref="#PWR?"  Part="1" 
F 0 "#PWR055" H 6600 2750 50  0001 C CNN
F 1 "ground" H 6600 2680 50  0001 C CNN
F 2 "" H 6600 2750 50  0001 C CNN
F 3 "" H 6600 2750 50  0000 C CNN
	1    6600 2750
	1    0    0    -1  
$EndComp
Text Notes 5700 2550 2    50   ~ 0
0.6 V
$Comp
L combined:ground #PWR056
U 1 1 5F1E52CC
P 7000 2750
AR Path="/5C2CDB08/5F1E52CC" Ref="#PWR056"  Part="1" 
AR Path="/5E374CB3/5F1E52CC" Ref="#PWR?"  Part="1" 
F 0 "#PWR056" H 7000 2750 50  0001 C CNN
F 1 "ground" H 7000 2680 50  0001 C CNN
F 2 "" H 7000 2750 50  0001 C CNN
F 3 "" H 7000 2750 50  0000 C CNN
	1    7000 2750
	1    0    0    -1  
$EndComp
$Comp
L combined:ground #PWR058
U 1 1 5F1E52E0
P 7400 2750
AR Path="/5C2CDB08/5F1E52E0" Ref="#PWR058"  Part="1" 
AR Path="/5E374CB3/5F1E52E0" Ref="#PWR?"  Part="1" 
F 0 "#PWR058" H 7400 2750 50  0001 C CNN
F 1 "ground" H 7400 2680 50  0001 C CNN
F 2 "" H 7400 2750 50  0001 C CNN
F 3 "" H 7400 2750 50  0000 C CNN
	1    7400 2750
	1    0    0    -1  
$EndComp
$Comp
L capacitors:capacitor_0402 C13
U 1 1 5F1E52F8
P 5950 2800
AR Path="/5C2CDB08/5F1E52F8" Ref="C13"  Part="1" 
AR Path="/5E374CB3/5F1E52F8" Ref="C?"  Part="1" 
F 0 "C13" V 5800 2800 50  0000 C CNN
F 1 "DNP" V 6100 2800 50  0000 C CNN
F 2 "kicad_pcb:C_0402_1005Metric" H 6100 2700 50  0001 L CNN
F 3 "" H 5950 2800 50  0000 C CNN
	1    5950 2800
	0    1    1    0   
$EndComp
Wire Wire Line
	6150 2800 6300 2800
Wire Wire Line
	6300 2800 6300 2550
Connection ~ 6300 2550
Wire Wire Line
	5750 2800 5650 2800
Wire Wire Line
	5650 2800 5650 2550
Connection ~ 5650 2550
Wire Wire Line
	5650 2550 5400 2550
Connection ~ 6700 2350
$Comp
L combined:ground #PWR059
U 1 1 5F1E5315
P 7800 2750
AR Path="/5C2CDB08/5F1E5315" Ref="#PWR059"  Part="1" 
AR Path="/5E374CB3/5F1E5315" Ref="#PWR?"  Part="1" 
F 0 "#PWR059" H 7800 2750 50  0001 C CNN
F 1 "ground" H 7800 2680 50  0001 C CNN
F 2 "" H 7800 2750 50  0001 C CNN
F 3 "" H 7800 2750 50  0000 C CNN
	1    7800 2750
	1    0    0    -1  
$EndComp
$Comp
L inductor:YPDMG L5
U 1 1 5F1E5321
P 8100 2350
AR Path="/5C2CDB08/5F1E5321" Ref="L5"  Part="1" 
AR Path="/5E374CB3/5F1E5321" Ref="L?"  Part="1" 
F 0 "L5" H 8100 2550 50  0000 C CNN
F 1 "PH4BD" H 8100 2450 50  0000 C CNN
F 2 "kicad_pcb:L_Bourns-SRN4018" H 7850 2450 50  0001 C CNN
F 3 "" H 8100 2350 50  0001 L BNN
	1    8100 2350
	1    0    0    -1  
$EndComp
$Comp
L combined:ground #PWR061
U 1 1 5F1E5337
P 8450 2750
AR Path="/5C2CDB08/5F1E5337" Ref="#PWR061"  Part="1" 
AR Path="/5E374CB3/5F1E5337" Ref="#PWR?"  Part="1" 
F 0 "#PWR061" H 8450 2750 50  0001 C CNN
F 1 "ground" H 8450 2680 50  0001 C CNN
F 2 "" H 8450 2750 50  0001 C CNN
F 3 "" H 8450 2750 50  0000 C CNN
	1    8450 2750
	1    0    0    -1  
$EndComp
$Comp
L combined:ground #PWR063
U 1 1 5F1E534B
P 8850 3250
AR Path="/5C2CDB08/5F1E534B" Ref="#PWR063"  Part="1" 
AR Path="/5E374CB3/5F1E534B" Ref="#PWR?"  Part="1" 
F 0 "#PWR063" H 8850 3250 50  0001 C CNN
F 1 "ground" H 8850 3180 50  0001 C CNN
F 2 "" H 8850 3250 50  0001 C CNN
F 3 "" H 8850 3250 50  0000 C CNN
	1    8850 3250
	1    0    0    -1  
$EndComp
$Comp
L resistor:resistor_0402 R12
U 1 1 5F1E5355
P 8850 3000
AR Path="/5C2CDB08/5F1E5355" Ref="R12"  Part="1" 
AR Path="/5E374CB3/5F1E5355" Ref="R?"  Part="1" 
F 0 "R12" V 8750 3000 50  0000 C CNN
F 1 "0.33" V 8850 3000 50  0000 C CNN
F 2 "kicad_pcb:R_0805_2012Metric" V 8750 2800 50  0001 C CNN
F 3 "" H 8850 3000 50  0000 C CNN
	1    8850 3000
	-1   0    0    1   
$EndComp
Text HLabel 9050 2350 2    50   Output ~ 0
3V6A
$Comp
L resistor:resistor_0402 R11
U 1 1 5F1E5365
P 8100 2000
AR Path="/5C2CDB08/5F1E5365" Ref="R11"  Part="1" 
AR Path="/5E374CB3/5F1E5365" Ref="R?"  Part="1" 
F 0 "R11" V 8000 2000 50  0000 C CNN
F 1 "0.33" V 8100 2000 50  0000 C CNN
F 2 "kicad_pcb:R_0805_2012Metric" V 8000 1800 50  0001 C CNN
F 3 "" H 8100 2000 50  0000 C CNN
	1    8100 2000
	0    1    1    0   
$EndComp
Wire Wire Line
	8400 2350 8400 2000
Wire Wire Line
	8400 2000 8350 2000
Connection ~ 8400 2350
Wire Wire Line
	7800 2350 7800 2000
Wire Wire Line
	7800 2000 7850 2000
Connection ~ 7800 2350
$Comp
L power:+3V8 #PWR057
U 1 1 5F1F8954
P 7150 2350
F 0 "#PWR057" H 7150 2200 50  0001 C CNN
F 1 "+3V8" H 7165 2523 50  0000 C CNN
F 2 "" H 7150 2350 50  0001 C CNN
F 3 "" H 7150 2350 50  0001 C CNN
	1    7150 2350
	1    0    0    -1  
$EndComp
Connection ~ 7150 2350
$Comp
L capacitors:capacitor_0805 C3
U 1 1 617663D1
P 3300 1500
AR Path="/5C2CDB08/617663D1" Ref="C3"  Part="1" 
AR Path="/5E374CB3/617663D1" Ref="C?"  Part="1" 
F 0 "C3" V 3150 1500 50  0000 C CNN
F 1 "10 uF" V 3450 1500 50  0000 C CNN
F 2 "kicad_pcb:C_0805_2012Metric" H 3450 1400 50  0001 L CNN
F 3 "" H 3300 1500 50  0000 C CNN
	1    3300 1500
	1    0    0    -1  
$EndComp
Connection ~ 3300 1300
Wire Wire Line
	3300 1300 3000 1300
$Comp
L combined:ground #PWR043
U 1 1 61770901
P 3300 1700
AR Path="/5C2CDB08/61770901" Ref="#PWR043"  Part="1" 
AR Path="/5E374CB3/61770901" Ref="#PWR?"  Part="1" 
F 0 "#PWR043" H 3300 1700 50  0001 C CNN
F 1 "ground" H 3300 1630 50  0001 C CNN
F 2 "" H 3300 1700 50  0001 C CNN
F 3 "" H 3300 1700 50  0000 C CNN
	1    3300 1700
	1    0    0    -1  
$EndComp
Connection ~ 3000 1300
$Comp
L combined:ground #PWR044
U 1 1 61794E24
P 3350 2750
AR Path="/5C2CDB08/61794E24" Ref="#PWR044"  Part="1" 
AR Path="/5E374CB3/61794E24" Ref="#PWR?"  Part="1" 
F 0 "#PWR044" H 3350 2750 50  0001 C CNN
F 1 "ground" H 3350 2680 50  0001 C CNN
F 2 "" H 3350 2750 50  0001 C CNN
F 3 "" H 3350 2750 50  0000 C CNN
	1    3350 2750
	1    0    0    -1  
$EndComp
$Comp
L power:PWR_FLAG #FLG02
U 1 1 617A59B8
P 2550 1300
AR Path="/5C2CDB08/617A59B8" Ref="#FLG02"  Part="1" 
AR Path="/5E374CB3/617A59B8" Ref="#FLG?"  Part="1" 
F 0 "#FLG02" H 2550 1375 50  0001 C CNN
F 1 "PWR_FLAG" V 2550 1600 50  0000 C CNN
F 2 "" H 2550 1300 50  0001 C CNN
F 3 "~" H 2550 1300 50  0001 C CNN
	1    2550 1300
	1    0    0    -1  
$EndComp
Connection ~ 2550 1300
$Comp
L connector:MYM7D P4
U 1 1 617A911F
P 1000 1200
F 0 "P4" H 1092 1273 50  0000 C CNN
F 1 "MYM7D" H 1000 1350 50  0001 L CNN
F 2 "kicad_pcb:JST_PA_B02B-PASK_1x02_P2.00mm_Vertical" H 1000 1250 50  0001 L CNN
F 3 "${PARTS}/MYM7D/PA.pdf" V 1250 1200 50  0001 C CNN
	1    1000 1200
	-1   0    0    -1  
$EndComp
$Comp
L combined:ground #PWR038
U 1 1 617B6B74
P 1150 1450
AR Path="/5C2CDB08/617B6B74" Ref="#PWR038"  Part="1" 
AR Path="/5E374CB3/617B6B74" Ref="#PWR?"  Part="1" 
F 0 "#PWR038" H 1150 1450 50  0001 C CNN
F 1 "ground" H 1150 1380 50  0001 C CNN
F 2 "" H 1150 1450 50  0001 C CNN
F 3 "" H 1150 1450 50  0000 C CNN
	1    1150 1450
	1    0    0    -1  
$EndComp
Wire Wire Line
	1100 1400 1150 1400
Wire Wire Line
	1150 1400 1150 1450
$Comp
L power:+1V8 #PWR049
U 1 1 5FEB3932
P 7800 4550
F 0 "#PWR049" H 7800 4400 50  0001 C CNN
F 1 "+1V8" H 7815 4723 50  0000 C CNN
F 2 "" H 7800 4550 50  0001 C CNN
F 3 "" H 7800 4550 50  0001 C CNN
	1    7800 4550
	1    0    0    -1  
$EndComp
$Comp
L ic:HFM64 U3
U 1 1 61B011A9
P 4550 4550
F 0 "U3" H 4875 4725 50  0000 C CNN
F 1 "HFM64" H 4875 4634 50  0000 C CNN
F 2 "kicad_pcb:SOT-563" H 4900 4600 50  0001 L CNN
F 3 "$PARTS/HFM64/tlv62585.pdf" V 4800 4550 50  0001 C CNN
	1    4550 4550
	1    0    0    -1  
$EndComp
$Comp
L power:+3V3 #PWR066
U 1 1 61D401A8
P 9600 5600
F 0 "#PWR066" H 9600 5450 50  0001 C CNN
F 1 "+3V3" H 9615 5773 50  0000 C CNN
F 2 "" H 9600 5600 50  0001 C CNN
F 3 "" H 9600 5600 50  0001 C CNN
	1    9600 5600
	1    0    0    -1  
$EndComp
$Comp
L misc:6H67G Fl1
U 1 1 62A2F93B
P 1850 1300
F 0 "Fl1" H 1850 1423 50  0000 C CNN
F 1 "6H67G" H 1650 1400 50  0001 L BNN
F 2 "kicad_pcb:NFE31" H 1850 1300 50  0001 L BNN
F 3 "$PARTS/6H67G/NFE31PT222Z1E9#.pdf" H 1850 1300 50  0001 L BNN
	1    1850 1300
	1    0    0    -1  
$EndComp
$Comp
L combined:ground #PWR040
U 1 1 62A30AC7
P 1850 1500
AR Path="/5C2CDB08/62A30AC7" Ref="#PWR040"  Part="1" 
AR Path="/5E374CB3/62A30AC7" Ref="#PWR?"  Part="1" 
F 0 "#PWR040" H 1850 1500 50  0001 C CNN
F 1 "ground" H 1850 1430 50  0001 C CNN
F 2 "" H 1850 1500 50  0001 C CNN
F 3 "" H 1850 1500 50  0000 C CNN
	1    1850 1500
	1    0    0    -1  
$EndComp
Text Label 1250 1300 0    50   ~ 0
VIN1
Text Label 5300 4700 0    50   ~ 0
PG18
$Comp
L capacitors:capacitor_0402 C10
U 1 1 5F2A794E
P 8200 4800
AR Path="/5C2CDB08/5F2A794E" Ref="C10"  Part="1" 
AR Path="/5E374CB3/5F2A794E" Ref="C?"  Part="1" 
F 0 "C10" V 8050 4800 50  0000 C CNN
F 1 "1 uF" V 8350 4800 50  0000 C CNN
F 2 "kicad_pcb:C_0402_1005Metric" H 8350 4700 50  0001 L CNN
F 3 "" H 8200 4800 50  0000 C CNN
	1    8200 4800
	1    0    0    -1  
$EndComp
$Comp
L ic:HFM64 U5
U 1 1 5E9D564C
P 4550 1250
F 0 "U5" H 4875 1425 50  0000 C CNN
F 1 "HFM64" H 4875 1334 50  0000 C CNN
F 2 "kicad_pcb:SOT-563" H 4900 1300 50  0001 L CNN
F 3 "$PARTS/HFM64/tlv62585.pdf" V 4800 1250 50  0001 C CNN
	1    4550 1250
	1    0    0    -1  
$EndComp
NoConn ~ 5300 1400
Wire Wire Line
	6300 1300 6300 1500
Wire Wire Line
	3300 1300 4450 1300
$Comp
L combined:ground #PWR047
U 1 1 5EA0572E
P 4450 1550
AR Path="/5C2CDB08/5EA0572E" Ref="#PWR047"  Part="1" 
AR Path="/5E374CB3/5EA0572E" Ref="#PWR?"  Part="1" 
F 0 "#PWR047" H 4450 1550 50  0001 C CNN
F 1 "ground" H 4450 1480 50  0001 C CNN
F 2 "" H 4450 1550 50  0001 C CNN
F 3 "" H 4450 1550 50  0000 C CNN
	1    4450 1550
	1    0    0    -1  
$EndComp
Wire Wire Line
	4450 1500 4450 1550
$Comp
L inductor:YPDMG L3
U 1 1 5EA37451
P 5950 1300
AR Path="/5C2CDB08/5EA37451" Ref="L3"  Part="1" 
AR Path="/5E374CB3/5EA37451" Ref="L?"  Part="1" 
F 0 "L3" H 5950 1500 50  0000 C CNN
F 1 "PH4BD" H 5950 1400 50  0000 C CNN
F 2 "kicad_pcb:L_Bourns-SRN4018" H 5700 1400 50  0001 C CNN
F 3 "" H 5950 1300 50  0001 L BNN
	1    5950 1300
	1    0    0    -1  
$EndComp
$Comp
L ic:HFM64 U6
U 1 1 5EA40155
P 4550 2300
F 0 "U6" H 4875 2475 50  0000 C CNN
F 1 "HFM64" H 4875 2384 50  0000 C CNN
F 2 "kicad_pcb:SOT-563" H 4900 2350 50  0001 L CNN
F 3 "$PARTS/HFM64/tlv62585.pdf" V 4800 2300 50  0001 C CNN
	1    4550 2300
	1    0    0    -1  
$EndComp
Wire Wire Line
	6300 2350 6300 2550
NoConn ~ 5300 2450
Wire Wire Line
	4450 2450 4450 2350
Connection ~ 4450 2350
$Comp
L combined:ground #PWR048
U 1 1 5EA591DB
P 4450 2600
AR Path="/5C2CDB08/5EA591DB" Ref="#PWR048"  Part="1" 
AR Path="/5E374CB3/5EA591DB" Ref="#PWR?"  Part="1" 
F 0 "#PWR048" H 4450 2600 50  0001 C CNN
F 1 "ground" H 4450 2530 50  0001 C CNN
F 2 "" H 4450 2600 50  0001 C CNN
F 3 "" H 4450 2600 50  0000 C CNN
	1    4450 2600
	1    0    0    -1  
$EndComp
Wire Wire Line
	4450 2550 4450 2600
Wire Wire Line
	7800 5850 7750 5850
Wire Wire Line
	7750 5850 7750 5650
Connection ~ 7750 5650
$Comp
L capacitors:capacitor_0805 C4
U 1 1 5EB55B3B
P 3350 2550
AR Path="/5C2CDB08/5EB55B3B" Ref="C4"  Part="1" 
AR Path="/5E374CB3/5EB55B3B" Ref="C?"  Part="1" 
F 0 "C4" V 3200 2550 50  0000 C CNN
F 1 "10 uF" V 3500 2550 50  0000 C CNN
F 2 "kicad_pcb:C_0805_2012Metric" H 3500 2450 50  0001 L CNN
F 3 "" H 3350 2550 50  0000 C CNN
	1    3350 2550
	1    0    0    -1  
$EndComp
Wire Wire Line
	4450 4700 4450 4600
Connection ~ 4450 4600
$Comp
L inductor:YPDMG L4
U 1 1 5EB7D814
P 5950 2350
AR Path="/5C2CDB08/5EB7D814" Ref="L4"  Part="1" 
AR Path="/5E374CB3/5EB7D814" Ref="L?"  Part="1" 
F 0 "L4" H 5950 2550 50  0000 C CNN
F 1 "PH4BD" H 5950 2450 50  0000 C CNN
F 2 "kicad_pcb:L_Bourns-SRN4018" H 5700 2450 50  0001 C CNN
F 3 "" H 5950 2350 50  0001 L BNN
	1    5950 2350
	1    0    0    -1  
$EndComp
Wire Wire Line
	6300 1300 6600 1300
Wire Wire Line
	6700 1300 7000 1300
$Comp
L capacitors:capacitor_0805 C17
U 1 1 62688281
P 6600 1500
AR Path="/5C2CDB08/62688281" Ref="C17"  Part="1" 
AR Path="/5E374CB3/62688281" Ref="C?"  Part="1" 
F 0 "C17" V 6450 1500 50  0000 C CNN
F 1 "10 uF" V 6750 1500 50  0000 C CNN
F 2 "kicad_pcb:C_0805_2012Metric" H 6750 1400 50  0001 L CNN
F 3 "" H 6600 1500 50  0000 C CNN
	1    6600 1500
	1    0    0    1   
$EndComp
Connection ~ 6600 1300
Wire Wire Line
	6600 1300 6700 1300
$Comp
L capacitors:capacitor_0805 C20
U 1 1 626887AD
P 7000 1500
AR Path="/5C2CDB08/626887AD" Ref="C20"  Part="1" 
AR Path="/5E374CB3/626887AD" Ref="C?"  Part="1" 
F 0 "C20" V 6850 1500 50  0000 C CNN
F 1 "10 uF" V 7150 1500 50  0000 C CNN
F 2 "kicad_pcb:C_0805_2012Metric" H 7150 1400 50  0001 L CNN
F 3 "" H 7000 1500 50  0000 C CNN
	1    7000 1500
	1    0    0    -1  
$EndComp
Connection ~ 7000 1300
Wire Wire Line
	7000 1300 7400 1300
$Comp
L capacitors:capacitor_0805 C23
U 1 1 62688C4E
P 7400 1500
AR Path="/5C2CDB08/62688C4E" Ref="C23"  Part="1" 
AR Path="/5E374CB3/62688C4E" Ref="C?"  Part="1" 
F 0 "C23" V 7250 1500 50  0000 C CNN
F 1 "10 uF" V 7550 1500 50  0000 C CNN
F 2 "kicad_pcb:C_0805_2012Metric" H 7550 1400 50  0001 L CNN
F 3 "" H 7400 1500 50  0000 C CNN
	1    7400 1500
	1    0    0    -1  
$EndComp
$Comp
L ic:CGK8Y U7
U 1 1 62693BF6
P 7900 5550
F 0 "U7" H 8200 5715 50  0000 C CNN
F 1 "CGK8Y" H 8200 5624 50  0000 C CNN
F 2 "kicad_pcb:SOT-23-5" H 8200 5600 50  0001 L CNN
F 3 "$PARTS/CGK8Y/lp5907.pdf" V 8150 5550 50  0001 C CNN
	1    7900 5550
	1    0    0    -1  
$EndComp
NoConn ~ 8600 5850
Wire Wire Line
	6300 2350 6600 2350
Wire Wire Line
	6700 2350 7000 2350
Wire Wire Line
	7150 2350 7400 2350
$Comp
L capacitors:capacitor_0805 C18
U 1 1 626BA52E
P 6600 2550
AR Path="/5C2CDB08/626BA52E" Ref="C18"  Part="1" 
AR Path="/5E374CB3/626BA52E" Ref="C?"  Part="1" 
F 0 "C18" V 6450 2550 50  0000 C CNN
F 1 "10 uF" V 6750 2550 50  0000 C CNN
F 2 "kicad_pcb:C_0805_2012Metric" H 6750 2450 50  0001 L CNN
F 3 "" H 6600 2550 50  0000 C CNN
	1    6600 2550
	1    0    0    1   
$EndComp
Connection ~ 6600 2350
Wire Wire Line
	6600 2350 6700 2350
$Comp
L capacitors:capacitor_0805 C21
U 1 1 626BAC26
P 7000 2550
AR Path="/5C2CDB08/626BAC26" Ref="C21"  Part="1" 
AR Path="/5E374CB3/626BAC26" Ref="C?"  Part="1" 
F 0 "C21" V 6850 2550 50  0000 C CNN
F 1 "10 uF" V 7150 2550 50  0000 C CNN
F 2 "kicad_pcb:C_0805_2012Metric" H 7150 2450 50  0001 L CNN
F 3 "" H 7000 2550 50  0000 C CNN
	1    7000 2550
	1    0    0    1   
$EndComp
Connection ~ 7000 2350
Wire Wire Line
	7000 2350 7150 2350
$Comp
L capacitors:capacitor_0805 C24
U 1 1 626BB187
P 7400 2550
AR Path="/5C2CDB08/626BB187" Ref="C24"  Part="1" 
AR Path="/5E374CB3/626BB187" Ref="C?"  Part="1" 
F 0 "C24" V 7250 2550 50  0000 C CNN
F 1 "10 uF" V 7550 2550 50  0000 C CNN
F 2 "kicad_pcb:C_0805_2012Metric" H 7550 2450 50  0001 L CNN
F 3 "" H 7400 2550 50  0000 C CNN
	1    7400 2550
	1    0    0    1   
$EndComp
Connection ~ 7400 2350
Wire Wire Line
	7400 2350 7800 2350
$Comp
L capacitors:capacitor_0805 C26
U 1 1 626BB70D
P 7800 2550
AR Path="/5C2CDB08/626BB70D" Ref="C26"  Part="1" 
AR Path="/5E374CB3/626BB70D" Ref="C?"  Part="1" 
F 0 "C26" V 7650 2550 50  0000 C CNN
F 1 "10 uF" V 7950 2550 50  0000 C CNN
F 2 "kicad_pcb:C_0805_2012Metric" H 7950 2450 50  0001 L CNN
F 3 "" H 7800 2550 50  0000 C CNN
	1    7800 2550
	1    0    0    1   
$EndComp
Wire Wire Line
	8400 2350 8450 2350
$Comp
L capacitors:capacitor_0805 C28
U 1 1 626C5C22
P 8450 2550
AR Path="/5C2CDB08/626C5C22" Ref="C28"  Part="1" 
AR Path="/5E374CB3/626C5C22" Ref="C?"  Part="1" 
F 0 "C28" V 8300 2550 50  0000 C CNN
F 1 "10 uF" V 8600 2550 50  0000 C CNN
F 2 "kicad_pcb:C_0805_2012Metric" H 8600 2450 50  0001 L CNN
F 3 "" H 8450 2550 50  0000 C CNN
	1    8450 2550
	1    0    0    1   
$EndComp
Connection ~ 8450 2350
Wire Wire Line
	8450 2350 8850 2350
$Comp
L capacitors:capacitor_0805 C30
U 1 1 626C6179
P 8850 2550
AR Path="/5C2CDB08/626C6179" Ref="C30"  Part="1" 
AR Path="/5E374CB3/626C6179" Ref="C?"  Part="1" 
F 0 "C30" V 8700 2550 50  0000 C CNN
F 1 "10 uF" V 9000 2550 50  0000 C CNN
F 2 "kicad_pcb:C_0805_2012Metric" H 9000 2450 50  0001 L CNN
F 3 "" H 8850 2550 50  0000 C CNN
	1    8850 2550
	1    0    0    1   
$EndComp
Connection ~ 8850 2350
$Comp
L capacitors:capacitor_0402 C9
U 1 1 626D97FF
P 7800 4800
AR Path="/5C2CDB08/626D97FF" Ref="C9"  Part="1" 
AR Path="/5E374CB3/626D97FF" Ref="C?"  Part="1" 
F 0 "C9" V 7650 4800 50  0000 C CNN
F 1 "1 uF" V 7950 4800 50  0000 C CNN
F 2 "kicad_pcb:C_0402_1005Metric" H 7950 4700 50  0001 L CNN
F 3 "" H 7800 4800 50  0000 C CNN
	1    7800 4800
	1    0    0    -1  
$EndComp
Connection ~ 7800 4600
$Comp
L capacitors:capacitor_0402 C11
U 1 1 626DAE12
P 8600 4800
AR Path="/5C2CDB08/626DAE12" Ref="C11"  Part="1" 
AR Path="/5E374CB3/626DAE12" Ref="C?"  Part="1" 
F 0 "C11" V 8450 4800 50  0000 C CNN
F 1 "1 uF" V 8750 4800 50  0000 C CNN
F 2 "kicad_pcb:C_0402_1005Metric" H 8750 4700 50  0001 L CNN
F 3 "" H 8600 4800 50  0000 C CNN
	1    8600 4800
	1    0    0    -1  
$EndComp
$Comp
L capacitors:capacitor_0402 C12
U 1 1 626E2714
P 9000 4800
AR Path="/5C2CDB08/626E2714" Ref="C12"  Part="1" 
AR Path="/5E374CB3/626E2714" Ref="C?"  Part="1" 
F 0 "C12" V 8850 4800 50  0000 C CNN
F 1 "1 uF" V 9150 4800 50  0000 C CNN
F 2 "kicad_pcb:C_0402_1005Metric" H 9150 4700 50  0001 L CNN
F 3 "" H 9000 4800 50  0000 C CNN
	1    9000 4800
	1    0    0    -1  
$EndComp
$Comp
L capacitors:capacitor_0402 C15
U 1 1 626E271E
P 9400 4800
AR Path="/5C2CDB08/626E271E" Ref="C15"  Part="1" 
AR Path="/5E374CB3/626E271E" Ref="C?"  Part="1" 
F 0 "C15" V 9250 4800 50  0000 C CNN
F 1 "1 uF" V 9550 4800 50  0000 C CNN
F 2 "kicad_pcb:C_0402_1005Metric" H 9550 4700 50  0001 L CNN
F 3 "" H 9400 4800 50  0000 C CNN
	1    9400 4800
	1    0    0    -1  
$EndComp
$Comp
L capacitors:capacitor_0402 C19
U 1 1 626E9EEF
P 9800 4800
AR Path="/5C2CDB08/626E9EEF" Ref="C19"  Part="1" 
AR Path="/5E374CB3/626E9EEF" Ref="C?"  Part="1" 
F 0 "C19" V 9650 4800 50  0000 C CNN
F 1 "1 uF" V 9950 4800 50  0000 C CNN
F 2 "kicad_pcb:C_0402_1005Metric" H 9950 4700 50  0001 L CNN
F 3 "" H 9800 4800 50  0000 C CNN
	1    9800 4800
	1    0    0    -1  
$EndComp
$Comp
L capacitors:capacitor_0402 C22
U 1 1 626E9EF9
P 10200 4800
AR Path="/5C2CDB08/626E9EF9" Ref="C22"  Part="1" 
AR Path="/5E374CB3/626E9EF9" Ref="C?"  Part="1" 
F 0 "C22" V 10050 4800 50  0000 C CNN
F 1 "1 uF" V 10350 4800 50  0000 C CNN
F 2 "kicad_pcb:C_0402_1005Metric" H 10350 4700 50  0001 L CNN
F 3 "" H 10200 4800 50  0000 C CNN
	1    10200 4800
	1    0    0    -1  
$EndComp
Wire Wire Line
	10200 5000 9800 5000
Connection ~ 7800 5000
Connection ~ 8200 5000
Wire Wire Line
	8200 5000 7800 5000
Connection ~ 8600 5000
Wire Wire Line
	8600 5000 8200 5000
Connection ~ 9000 5000
Wire Wire Line
	9000 5000 8600 5000
Connection ~ 9400 5000
Wire Wire Line
	9400 5000 9000 5000
Connection ~ 9800 5000
Wire Wire Line
	9800 5000 9400 5000
Wire Wire Line
	7800 4600 8200 4600
Connection ~ 8200 4600
Wire Wire Line
	8200 4600 8600 4600
Connection ~ 8600 4600
Wire Wire Line
	8600 4600 9000 4600
Connection ~ 9000 4600
Wire Wire Line
	9000 4600 9400 4600
Connection ~ 9400 4600
Wire Wire Line
	9400 4600 9800 4600
Connection ~ 9800 4600
Wire Wire Line
	9800 4600 10200 4600
Wire Wire Line
	1100 1300 1500 1300
Wire Wire Line
	8850 2350 9050 2350
Wire Wire Line
	2550 1300 3000 1300
$Comp
L capacitors:capacitor_0402 C25
U 1 1 6309F800
P 7800 1500
AR Path="/5C2CDB08/6309F800" Ref="C25"  Part="1" 
AR Path="/5E374CB3/6309F800" Ref="C?"  Part="1" 
F 0 "C25" V 7650 1500 50  0000 C CNN
F 1 "1 uF" V 7950 1500 50  0000 C CNN
F 2 "kicad_pcb:C_0402_1005Metric" H 7950 1400 50  0001 L CNN
F 3 "" H 7800 1500 50  0000 C CNN
	1    7800 1500
	1    0    0    -1  
$EndComp
$Comp
L capacitors:capacitor_0402 C27
U 1 1 6309F80A
P 8200 1500
AR Path="/5C2CDB08/6309F80A" Ref="C27"  Part="1" 
AR Path="/5E374CB3/6309F80A" Ref="C?"  Part="1" 
F 0 "C27" V 8050 1500 50  0000 C CNN
F 1 "1 uF" V 8350 1500 50  0000 C CNN
F 2 "kicad_pcb:C_0402_1005Metric" H 8350 1400 50  0001 L CNN
F 3 "" H 8200 1500 50  0000 C CNN
	1    8200 1500
	1    0    0    -1  
$EndComp
$Comp
L capacitors:capacitor_0402 C29
U 1 1 6309F814
P 8600 1500
AR Path="/5C2CDB08/6309F814" Ref="C29"  Part="1" 
AR Path="/5E374CB3/6309F814" Ref="C?"  Part="1" 
F 0 "C29" V 8450 1500 50  0000 C CNN
F 1 "1 uF" V 8750 1500 50  0000 C CNN
F 2 "kicad_pcb:C_0402_1005Metric" H 8750 1400 50  0001 L CNN
F 3 "" H 8600 1500 50  0000 C CNN
	1    8600 1500
	1    0    0    -1  
$EndComp
$Comp
L capacitors:capacitor_0402 C31
U 1 1 6309F81E
P 9000 1500
AR Path="/5C2CDB08/6309F81E" Ref="C31"  Part="1" 
AR Path="/5E374CB3/6309F81E" Ref="C?"  Part="1" 
F 0 "C31" V 8850 1500 50  0000 C CNN
F 1 "1 uF" V 9150 1500 50  0000 C CNN
F 2 "kicad_pcb:C_0402_1005Metric" H 9150 1400 50  0001 L CNN
F 3 "" H 9000 1500 50  0000 C CNN
	1    9000 1500
	1    0    0    -1  
$EndComp
Wire Wire Line
	6600 1700 7000 1700
Connection ~ 7000 1700
Wire Wire Line
	7000 1700 7400 1700
Connection ~ 7400 1700
Wire Wire Line
	7400 1700 7800 1700
Connection ~ 7800 1700
Wire Wire Line
	7800 1700 8200 1700
Connection ~ 8200 1700
Wire Wire Line
	8200 1700 8600 1700
Connection ~ 8600 1700
Wire Wire Line
	8600 1700 9000 1700
Wire Wire Line
	9000 1700 9000 1750
Connection ~ 9000 1700
Wire Wire Line
	7400 1300 7800 1300
Connection ~ 7400 1300
Connection ~ 7800 1300
Wire Wire Line
	7800 1300 8200 1300
Connection ~ 8200 1300
Wire Wire Line
	8200 1300 8600 1300
Connection ~ 8600 1300
Wire Wire Line
	8600 1300 9000 1300
Connection ~ 9000 1300
Wire Wire Line
	5450 1500 5700 1500
Wire Wire Line
	5300 1500 5450 1500
Wire Wire Line
	8600 5650 9200 5650
$Comp
L power:+1V2 #PWR?
U 1 1 633C81FA
P 7000 3450
AR Path="/61CF01D5/633C81FA" Ref="#PWR?"  Part="1" 
AR Path="/5C2CDB08/633C81FA" Ref="#PWR053"  Part="1" 
F 0 "#PWR053" H 7000 3300 50  0001 C CNN
F 1 "+1V2" H 7015 3623 50  0000 C CNN
F 2 "" H 7000 3450 50  0001 C CNN
F 3 "" H 7000 3450 50  0001 C CNN
	1    7000 3450
	1    0    0    -1  
$EndComp
Wire Wire Line
	4450 3450 4450 3550
Connection ~ 4450 3450
Wire Wire Line
	5650 3450 5300 3450
Text Label 5350 3450 0    50   ~ 0
SW12
Wire Wire Line
	6300 3450 6250 3450
Connection ~ 6300 3450
$Comp
L resistor:resistor_0402 R5
U 1 1 633CF89D
P 5450 3900
AR Path="/5C2CDB08/633CF89D" Ref="R5"  Part="1" 
AR Path="/5E374CB3/633CF89D" Ref="R?"  Part="1" 
F 0 "R5" V 5350 3900 50  0000 C CNN
F 1 "10 k" V 5450 3900 50  0000 C CNN
F 2 "kicad_pcb:R_0402_1005Metric" V 5350 3700 50  0001 C CNN
F 3 "" H 5450 3900 50  0000 C CNN
	1    5450 3900
	1    0    0    -1  
$EndComp
$Comp
L resistor:resistor_0402 R6
U 1 1 633CF8A7
P 5950 3650
AR Path="/5C2CDB08/633CF8A7" Ref="R6"  Part="1" 
AR Path="/5E374CB3/633CF8A7" Ref="R?"  Part="1" 
F 0 "R6" V 5850 3650 50  0000 C CNN
F 1 "10 k" V 5950 3650 50  0000 C CNN
F 2 "kicad_pcb:R_0402_1005Metric" V 5850 3450 50  0001 C CNN
F 3 "" H 5950 3650 50  0000 C CNN
	1    5950 3650
	0    1    1    0   
$EndComp
Wire Wire Line
	6200 3650 6300 3650
Connection ~ 5450 3650
$Comp
L combined:ground #PWR050
U 1 1 633CF8B3
P 5450 4150
AR Path="/5C2CDB08/633CF8B3" Ref="#PWR050"  Part="1" 
AR Path="/5E374CB3/633CF8B3" Ref="#PWR?"  Part="1" 
F 0 "#PWR050" H 5450 4150 50  0001 C CNN
F 1 "ground" H 5450 4080 50  0001 C CNN
F 2 "" H 5450 4150 50  0001 C CNN
F 3 "" H 5450 4150 50  0000 C CNN
	1    5450 4150
	1    0    0    -1  
$EndComp
Text Label 5350 3650 0    50   ~ 0
FB12
Text Notes 5750 3650 2    50   ~ 0
0.6 V
$Comp
L ic:HFM64 U4
U 1 1 633CF8BF
P 4550 3400
F 0 "U4" H 4875 3575 50  0000 C CNN
F 1 "HFM64" H 4875 3484 50  0000 C CNN
F 2 "kicad_pcb:SOT-563" H 4900 3450 50  0001 L CNN
F 3 "$PARTS/HFM64/tlv62585.pdf" V 4800 3400 50  0001 C CNN
	1    4550 3400
	1    0    0    -1  
$EndComp
NoConn ~ 5300 3550
Wire Wire Line
	6300 3450 6300 3650
$Comp
L combined:ground #PWR046
U 1 1 633CF8CC
P 4450 3700
AR Path="/5C2CDB08/633CF8CC" Ref="#PWR046"  Part="1" 
AR Path="/5E374CB3/633CF8CC" Ref="#PWR?"  Part="1" 
F 0 "#PWR046" H 4450 3700 50  0001 C CNN
F 1 "ground" H 4450 3630 50  0001 C CNN
F 2 "" H 4450 3700 50  0001 C CNN
F 3 "" H 4450 3700 50  0000 C CNN
	1    4450 3700
	1    0    0    -1  
$EndComp
Wire Wire Line
	4450 3650 4450 3700
$Comp
L inductor:YPDMG L2
U 1 1 633CF8D7
P 5950 3450
AR Path="/5C2CDB08/633CF8D7" Ref="L2"  Part="1" 
AR Path="/5E374CB3/633CF8D7" Ref="L?"  Part="1" 
F 0 "L2" H 5950 3650 50  0000 C CNN
F 1 "PH4BD" H 5950 3550 50  0000 C CNN
F 2 "kicad_pcb:L_Bourns-SRN4018" H 5700 3550 50  0001 C CNN
F 3 "" H 5950 3450 50  0001 L BNN
	1    5950 3450
	1    0    0    -1  
$EndComp
Wire Wire Line
	6300 3450 6450 3450
Wire Wire Line
	5450 3650 5700 3650
Wire Wire Line
	5300 3650 5450 3650
$Comp
L capacitors:capacitor_0805 C14
U 1 1 633E1AAF
P 6600 3650
AR Path="/5C2CDB08/633E1AAF" Ref="C14"  Part="1" 
AR Path="/5E374CB3/633E1AAF" Ref="C?"  Part="1" 
F 0 "C14" V 6450 3650 50  0000 C CNN
F 1 "10 uF" V 6750 3650 50  0000 C CNN
F 2 "kicad_pcb:C_0805_2012Metric" H 6750 3550 50  0001 L CNN
F 3 "" H 6600 3650 50  0000 C CNN
	1    6600 3650
	1    0    0    -1  
$EndComp
$Comp
L capacitors:capacitor_0805 C16
U 1 1 633E1AB9
P 7000 3650
AR Path="/5C2CDB08/633E1AB9" Ref="C16"  Part="1" 
AR Path="/5E374CB3/633E1AB9" Ref="C?"  Part="1" 
F 0 "C16" V 6850 3650 50  0000 C CNN
F 1 "10 uF" V 7150 3650 50  0000 C CNN
F 2 "kicad_pcb:C_0805_2012Metric" H 7150 3550 50  0001 L CNN
F 3 "" H 7000 3650 50  0000 C CNN
	1    7000 3650
	1    0    0    -1  
$EndComp
Wire Wire Line
	6600 3450 7000 3450
Connection ~ 6600 3450
Connection ~ 7000 3450
Wire Wire Line
	6600 3850 7000 3850
Wire Wire Line
	7000 3850 7000 3900
Connection ~ 7000 3850
$Comp
L combined:ground #PWR054
U 1 1 6340A9DB
P 7000 3900
AR Path="/5C2CDB08/6340A9DB" Ref="#PWR054"  Part="1" 
AR Path="/5E374CB3/6340A9DB" Ref="#PWR?"  Part="1" 
F 0 "#PWR054" H 7000 3900 50  0001 C CNN
F 1 "ground" H 7000 3830 50  0001 C CNN
F 2 "" H 7000 3900 50  0001 C CNN
F 3 "" H 7000 3900 50  0000 C CNN
	1    7000 3900
	1    0    0    -1  
$EndComp
Wire Wire Line
	3000 3450 4050 3450
$Comp
L capacitors:capacitor_0805 C6
U 1 1 63414B1C
P 4050 3650
AR Path="/5C2CDB08/63414B1C" Ref="C6"  Part="1" 
AR Path="/5E374CB3/63414B1C" Ref="C?"  Part="1" 
F 0 "C6" V 3900 3650 50  0000 C CNN
F 1 "10 uF" V 4200 3650 50  0000 C CNN
F 2 "kicad_pcb:C_0805_2012Metric" H 4200 3550 50  0001 L CNN
F 3 "" H 4050 3650 50  0000 C CNN
	1    4050 3650
	1    0    0    -1  
$EndComp
$Comp
L combined:ground #PWR045
U 1 1 63414B26
P 4050 3850
AR Path="/5C2CDB08/63414B26" Ref="#PWR045"  Part="1" 
AR Path="/5E374CB3/63414B26" Ref="#PWR?"  Part="1" 
F 0 "#PWR045" H 4050 3850 50  0001 C CNN
F 1 "ground" H 4050 3780 50  0001 C CNN
F 2 "" H 4050 3850 50  0001 C CNN
F 3 "" H 4050 3850 50  0000 C CNN
	1    4050 3850
	1    0    0    -1  
$EndComp
Connection ~ 4050 3450
Wire Wire Line
	4050 3450 4450 3450
Wire Wire Line
	3000 2350 3350 2350
Connection ~ 3350 2350
Wire Wire Line
	3350 2350 4450 2350
Wire Wire Line
	2200 1300 2550 1300
NoConn ~ 5300 4700
$Comp
L power:PWR_FLAG #FLG0101
U 1 1 5F4377CE
P 6450 3450
AR Path="/5C2CDB08/5F4377CE" Ref="#FLG0101"  Part="1" 
AR Path="/5E374CB3/5F4377CE" Ref="#FLG?"  Part="1" 
F 0 "#FLG0101" H 6450 3525 50  0001 C CNN
F 1 "PWR_FLAG" V 6450 3750 50  0000 C CNN
F 2 "" H 6450 3450 50  0001 C CNN
F 3 "~" H 6450 3450 50  0001 C CNN
	1    6450 3450
	1    0    0    -1  
$EndComp
Connection ~ 6450 3450
Wire Wire Line
	6450 3450 6600 3450
Connection ~ 3000 2350
Wire Wire Line
	3000 2350 3000 1300
Wire Wire Line
	3000 2350 3000 3450
Connection ~ 3000 3450
Wire Wire Line
	3000 4600 4000 4600
Wire Wire Line
	3000 3450 3000 4600
$EndSCHEMATC
